[gd_scene load_steps=5 format=2]

[ext_resource path="res://meshes/Slope.mesh" type="ArrayMesh" id=1]
[ext_resource path="res://meshes/Block.mesh" type="ArrayMesh" id=2]

[sub_resource type="ConvexPolygonShape" id=1]
points = PoolVector3Array( 1, 0, 0, 0, 0, 0, 1, 1, 0, 0, 1, 0, 0, 1, 0, 0, 0, 0, 0, 0, 1, 0, 0, 1, 0, 0, 0, 1, 0, 1, 1, 0, 0, 1, 0, 0, 1, 1, 0, 1, 0, 1, 0.916667, 0.769589, -0.133028, 0.833333, 0.841493, -0.091514, 1, 0.841493, -0.091514, 1, 1, 0, 0.666667, 0.841493, -0.091514, 0.5, 0.841493, -0.091514, 0.333333, 0.841493, -0.091514, 0.166667, 0.841493, -0.091514, 0, 0.841493, -0.091514, 0, 1, 0, 0.083333, 0.769589, -0.133028, 0.25, 0.769589, -0.133028, 0.416667, 0.769589, -0.133028, 0.583333, 0.769589, -0.133028, 0.75, 0.769589, -0.133028, 0, 1, 0, 0, 0.841493, -0.091514, -0.091514, 0.841493, 0, 1.09151, 0.841493, 0, 1, 0.841493, -0.091514, 1, 1, 0, 0, 1, 0, -0.091514, 0.841493, 0, 0, 0, 1, -0.091514, 0.716493, 0.125, -0.133028, 0.707089, 0.0625, -0.091514, 0.591493, 0.25, -0.133028, 0.582089, 0.1875, -0.091514, 0.466493, 0.375, -0.133028, 0.457089, 0.3125, -0.091514, 0.341493, 0.5, -0.133028, 0.332089, 0.4375, -0.091514, 0.216493, 0.625, -0.133028, 0.207089, 0.5625, -0.091514, 0.091493, 0.75, -0.133028, 0.082089, 0.6875, -0.133028, -0.042911, 0.8125, -0.091514, -0.033507, 0.875, -0.133028, -0.167911, 0.9375, -0.091514, -0.158507, 1, 0, 0, 1, 1, 0, 1, 0, 1, 0, 1, 1, 0, -0.091514, -0.158507, 1, 0, -0.158507, 1.09151, 0, 0, 1, 1.09151, 0.841493, 0, 1, 1, 0, 1.13303, 0.707089, 0.0625, 1.09151, 0.716493, 0.125, 1, 0, 1, 1.09151, 0.591493, 0.25, 1.13303, 0.582089, 0.1875, 1.09151, 0.466493, 0.375, 1.13303, 0.457089, 0.3125, 1.09151, 0.341493, 0.5, 1.13303, 0.332089, 0.4375, 1.09151, 0.216493, 0.625, 1.13303, 0.207089, 0.5625, 1.09151, 0.091493, 0.75, 1.13303, 0.082089, 0.6875, 1.13303, -0.042911, 0.8125, 1.09151, -0.033507, 0.875, 1.13303, -0.167911, 0.9375, 1.09151, -0.158507, 1, 0.083333, -0.230411, 1.13303, 0.166667, -0.158507, 1.09151, 0, -0.158507, 1.09151, 0, 0, 1, 0.333333, -0.158507, 1.09151, 0.5, -0.158507, 1.09151, 0.666667, -0.158507, 1.09151, 0.833333, -0.158507, 1.09151, 1, -0.158507, 1.09151, 1, 0, 1, 0.916667, -0.230411, 1.13303, 0.75, -0.230411, 1.13303, 0.583333, -0.230411, 1.13303, 0.416667, -0.230411, 1.13303, 0.25, -0.230411, 1.13303, 1.09151, -0.158507, 1, 1, 0, 1, 1, -0.158507, 1.09151 )

[sub_resource type="ConvexPolygonShape" id=2]
points = PoolVector3Array( 1.09151, 0.841493, 0, 1, 0.841493, -0.091514, 1, 1, 0, 1.09151, 0.841493, 1, 1, 1, 1, 1, 0.841493, 1.09151, 1.09151, 0.841493, 0, 1, 1, 0, 1.13303, 0.769589, 0.083333, 1.09151, 0.841493, 0.166667, 1, 1, 1, 1.09151, 0.841493, 0.333333, 1.13303, 0.769589, 0.25, 1.09151, 0.841493, 0.5, 1.13303, 0.769589, 0.416667, 1.09151, 0.841493, 0.666667, 1.13303, 0.769589, 0.583333, 1.13303, 0.769589, 0.75, 1.09151, 0.841493, 0.833333, 1.13303, 0.769589, 0.916667, 1.09151, 0.841493, 1, 0.916667, 0.769589, -0.133028, 0.833333, 0.841493, -0.091514, 1, 0.841493, -0.091514, 1, 1, 0, 0.666667, 0.841493, -0.091514, 0.5, 0.841493, -0.091514, 0.333333, 0.841493, -0.091514, 0.166667, 0.841493, -0.091514, 0, 0.841493, -0.091514, 0, 1, 0, 0.083333, 0.769589, -0.133028, 0.25, 0.769589, -0.133028, 0.416667, 0.769589, -0.133028, 0.583333, 0.769589, -0.133028, 0.75, 0.769589, -0.133028, 0, 1, 1, -0.091514, 0.841493, 1, 0, 0.841493, 1.09151, 0.083333, 0.769589, 1.13303, 0.166667, 0.841493, 1.09151, 0, 0.841493, 1.09151, 0, 1, 1, 0.333333, 0.841493, 1.09151, 0.5, 0.841493, 1.09151, 0.666667, 0.841493, 1.09151, 0.833333, 0.841493, 1.09151, 1, 0.841493, 1.09151, 1, 1, 1, 0.916667, 0.769589, 1.13303, 0.75, 0.769589, 1.13303, 0.583333, 0.769589, 1.13303, 0.416667, 0.769589, 1.13303, 0.25, 0.769589, 1.13303, -0.091514, 0.841493, 0, -0.133028, 0.769589, 0.083333, 0, 1, 0, -0.091514, 0.841493, 0.166667, 0, 1, 1, -0.091514, 0.841493, 0.333333, -0.133028, 0.769589, 0.25, -0.091514, 0.841493, 0.5, -0.133028, 0.769589, 0.416667, -0.091514, 0.841493, 0.666667, -0.133028, 0.769589, 0.583333, -0.133028, 0.769589, 0.75, -0.091514, 0.841493, 0.833333, -0.133028, 0.769589, 0.916667, -0.091514, 0.841493, 1, 0, 1, 1, 1, 1, 1, 0, 1, 0, 1, 1, 0, 0, 0.841493, -0.091514, -0.091514, 0.841493, 0, 0, 1, 0, 0, 1, 0, 0, 0, 0, 0, 1, 1, 0, 0, 1, 1, 0, 0, 0, 0, 0, 1, 1, 0, 0, 1, 0, 0, 0, 1, 0, 0, 0, 1, 0, 1, 1, 0, 0, 0, 0, 1, 1, 0, 1, 0, 1, 1, 1, 1, 1, 1, 0, 0, 1, 1, 0, 1, 0, 1, 1, 1, 1 )

[node name="MeshLibrary" type="Spatial"]

[node name="Slope" type="MeshInstance" parent="."]
transform = Transform( 1, 0, 0, 0, 1, 0, 0, 0, 1, -1.55962, 0.0728018, 0.903859 )
mesh = ExtResource( 1 )
material/0 = null
material/1 = null

[node name="StaticBody" type="StaticBody" parent="Slope"]

[node name="CollisionShape" type="CollisionShape" parent="Slope/StaticBody"]
shape = SubResource( 1 )

[node name="Block" type="MeshInstance" parent="."]
transform = Transform( 1, 0, 0, 0, 1, 0, 0, 0, 1, -1.74249, 0.0260255, -2.58648 )
mesh = ExtResource( 2 )
material/0 = null
material/1 = null

[node name="StaticBody" type="StaticBody" parent="Block"]

[node name="CollisionShape" type="CollisionShape" parent="Block/StaticBody"]
shape = SubResource( 2 )

