# Blender v2.83.5 OBJ File: 'crate.blend'
# www.blender.org
mtllib crate.mtl
o crate_(copy)
v -0.472055 0.460542 0.434825
v 0.465153 0.460542 0.434825
v 0.465153 0.460542 -0.453125
v -0.472055 0.460542 -0.453125
v 0.465153 -0.460581 -0.453125
v -0.472055 -0.460581 -0.453125
v 0.465153 -0.460581 0.434825
v -0.472055 -0.460581 0.434825
v 0.314179 0.320548 0.278512
v 0.481257 0.320548 0.278512
v 0.481257 0.484758 0.278512
v 0.314179 0.484758 0.278512
v 0.481257 0.500000 0.263444
v 0.481257 0.500000 -0.263444
v 0.314179 0.500000 -0.263444
v 0.314179 0.500000 0.263444
v 0.298670 0.484758 -0.263444
v 0.298670 0.320548 -0.263444
v 0.298670 0.320548 0.263444
v 0.298670 0.484758 0.263444
v 0.496766 0.320548 0.263444
v 0.496766 0.320548 -0.263444
v 0.496766 0.484758 -0.263444
v 0.496766 0.484758 0.263444
v 0.481257 0.484758 -0.278512
v 0.481257 0.320548 -0.278512
v 0.314179 0.320548 -0.278512
v 0.314179 0.484758 -0.278512
v 0.481257 0.305305 -0.263444
v 0.481257 0.305305 0.263444
v 0.314179 0.305305 0.263444
v 0.314179 0.305305 -0.263444
v -0.314180 -0.268634 0.500000
v -0.314180 0.268634 0.500000
v -0.481257 0.268634 0.500000
v -0.481257 -0.268634 0.500000
v -0.496767 0.268634 0.484933
v -0.496767 0.268634 0.317156
v -0.496767 -0.268634 0.317156
v -0.496767 -0.268634 0.484933
v -0.481257 -0.283876 0.317156
v -0.314180 -0.283876 0.317156
v -0.314180 -0.283876 0.484933
v -0.481257 -0.283876 0.484933
v -0.314180 0.283876 0.484933
v -0.314180 0.283876 0.317156
v -0.481257 0.283876 0.317156
v -0.481257 0.283876 0.484933
v -0.481257 0.268634 0.302089
v -0.314180 0.268634 0.302089
v -0.314180 -0.268634 0.302089
v -0.481257 -0.268634 0.302089
v -0.298670 0.268634 0.317156
v -0.298670 0.268634 0.484933
v -0.298670 -0.268634 0.484933
v -0.298670 -0.268634 0.317156
v -0.484490 -0.484758 0.500000
v 0.484490 -0.484758 0.500000
v 0.484490 -0.320546 0.500000
v -0.484490 -0.320546 0.500000
v 0.484490 -0.305303 0.484933
v 0.484490 -0.305303 0.317156
v -0.484490 -0.305303 0.317156
v -0.484490 -0.305303 0.484933
v -0.500000 -0.320546 0.317156
v -0.500000 -0.484758 0.317156
v -0.500000 -0.484758 0.484933
v -0.500000 -0.320546 0.484933
v 0.500000 -0.484758 0.484933
v 0.500000 -0.484758 0.317156
v 0.500000 -0.320546 0.317156
v 0.500000 -0.320546 0.484933
v 0.484490 -0.320546 0.302089
v 0.484490 -0.484758 0.302089
v -0.484490 -0.484758 0.302089
v -0.484490 -0.320546 0.302089
v 0.484490 -0.500000 0.317156
v 0.484490 -0.500000 0.484933
v -0.484490 -0.500000 0.484933
v -0.484490 -0.500000 0.317156
v 0.314179 -0.484758 0.278512
v 0.481257 -0.484758 0.278512
v 0.481257 -0.320548 0.278512
v 0.314179 -0.320548 0.278512
v 0.481257 -0.305305 0.263444
v 0.481257 -0.305305 -0.263444
v 0.314179 -0.305305 -0.263444
v 0.314179 -0.305305 0.263444
v 0.298670 -0.320548 -0.263444
v 0.298670 -0.484758 -0.263444
v 0.298670 -0.484758 0.263444
v 0.298670 -0.320548 0.263444
v 0.496766 -0.484758 0.263444
v 0.496766 -0.484758 -0.263444
v 0.496766 -0.320548 -0.263444
v 0.496766 -0.320548 0.263444
v 0.481257 -0.320548 -0.278512
v 0.481257 -0.484758 -0.278512
v 0.314179 -0.484758 -0.278512
v 0.314179 -0.320548 -0.278512
v 0.481257 -0.500000 -0.263444
v 0.481257 -0.500000 0.263444
v 0.314179 -0.500000 0.263444
v 0.314179 -0.500000 -0.263444
v -0.481257 -0.484758 0.278512
v -0.314180 -0.484758 0.278512
v -0.314180 -0.320548 0.278512
v -0.481257 -0.320548 0.278512
v -0.314180 -0.305305 0.263444
v -0.314180 -0.305305 -0.263444
v -0.481257 -0.305305 -0.263444
v -0.481257 -0.305305 0.263444
v -0.496767 -0.320548 -0.263444
v -0.496767 -0.484758 -0.263444
v -0.496767 -0.484758 0.263444
v -0.496767 -0.320548 0.263444
v -0.298670 -0.484758 0.263444
v -0.298670 -0.484758 -0.263444
v -0.298670 -0.320548 -0.263444
v -0.298670 -0.320548 0.263444
v -0.314180 -0.320548 -0.278512
v -0.314180 -0.484758 -0.278512
v -0.481257 -0.484758 -0.278512
v -0.481257 -0.320548 -0.278512
v -0.314180 -0.500000 -0.263444
v -0.314180 -0.500000 0.263444
v -0.481257 -0.500000 0.263444
v -0.481257 -0.500000 -0.263444
v -0.481257 0.320548 0.278512
v -0.314180 0.320548 0.278512
v -0.314180 0.484758 0.278512
v -0.481257 0.484758 0.278512
v -0.314180 0.500000 0.263444
v -0.314180 0.500000 -0.263444
v -0.481257 0.500000 -0.263444
v -0.481257 0.500000 0.263444
v -0.496767 0.484758 -0.263444
v -0.496767 0.320548 -0.263444
v -0.496767 0.320548 0.263444
v -0.496767 0.484758 0.263444
v -0.298670 0.320548 0.263444
v -0.298670 0.320548 -0.263444
v -0.298670 0.484758 -0.263444
v -0.298670 0.484758 0.263444
v -0.314180 0.484758 -0.278512
v -0.314180 0.320548 -0.278512
v -0.481257 0.320548 -0.278512
v -0.481257 0.484758 -0.278512
v -0.314180 0.305305 -0.263444
v -0.314180 0.305305 0.263444
v -0.481257 0.305305 0.263444
v -0.481257 0.305305 -0.263444
v -0.484490 -0.484758 -0.302089
v 0.484490 -0.484758 -0.302089
v 0.484490 -0.320546 -0.302089
v -0.484490 -0.320546 -0.302089
v 0.484490 -0.305303 -0.317156
v 0.484490 -0.305303 -0.484933
v -0.484490 -0.305303 -0.484933
v -0.484490 -0.305303 -0.317156
v -0.500000 -0.320546 -0.484933
v -0.500000 -0.484758 -0.484933
v -0.500000 -0.484758 -0.317156
v -0.500000 -0.320546 -0.317156
v 0.500000 -0.484758 -0.317156
v 0.500000 -0.484758 -0.484933
v 0.500000 -0.320546 -0.484933
v 0.500000 -0.320546 -0.317156
v 0.484490 -0.320546 -0.500000
v 0.484490 -0.484758 -0.500000
v -0.484490 -0.484758 -0.500000
v -0.484490 -0.320546 -0.500000
v 0.484490 -0.500000 -0.484933
v 0.484490 -0.500000 -0.317156
v -0.484490 -0.500000 -0.317156
v -0.484490 -0.500000 -0.484933
v -0.484490 0.320546 -0.302089
v 0.484490 0.320546 -0.302089
v 0.484490 0.484758 -0.302089
v -0.484490 0.484758 -0.302089
v 0.484490 0.500000 -0.317156
v 0.484490 0.500000 -0.484933
v -0.484490 0.500000 -0.484933
v -0.484490 0.500000 -0.317156
v -0.500000 0.484758 -0.484933
v -0.500000 0.320546 -0.484933
v -0.500000 0.320546 -0.317156
v -0.500000 0.484758 -0.317156
v 0.500000 0.320546 -0.317156
v 0.500000 0.320546 -0.484933
v 0.500000 0.484758 -0.484933
v 0.500000 0.484758 -0.317156
v 0.484490 0.484758 -0.500000
v 0.484490 0.320546 -0.500000
v -0.484490 0.320546 -0.500000
v -0.484490 0.484758 -0.500000
v 0.484490 0.305303 -0.484933
v 0.484490 0.305303 -0.317156
v -0.484490 0.305303 -0.317156
v -0.484490 0.305303 -0.484933
v 0.481257 -0.268634 -0.302089
v 0.481257 0.268634 -0.302089
v 0.314180 0.268634 -0.302089
v 0.314180 -0.268634 -0.302089
v 0.298670 0.268634 -0.317156
v 0.298670 0.268634 -0.484933
v 0.298670 -0.268634 -0.484933
v 0.298670 -0.268634 -0.317156
v 0.314180 -0.283876 -0.484933
v 0.481257 -0.283876 -0.484933
v 0.481257 -0.283876 -0.317156
v 0.314180 -0.283876 -0.317156
v 0.481257 0.283876 -0.317156
v 0.481257 0.283876 -0.484933
v 0.314180 0.283876 -0.484933
v 0.314180 0.283876 -0.317156
v 0.314180 0.268634 -0.500000
v 0.481257 0.268634 -0.500000
v 0.481257 -0.268634 -0.500000
v 0.314180 -0.268634 -0.500000
v 0.496766 0.268634 -0.484933
v 0.496766 0.268634 -0.317156
v 0.496766 -0.268634 -0.317156
v 0.496766 -0.268634 -0.484933
v -0.314180 -0.268634 -0.302089
v -0.314180 0.268634 -0.302089
v -0.481257 0.268634 -0.302089
v -0.481257 -0.268634 -0.302089
v -0.496767 0.268634 -0.317156
v -0.496767 0.268634 -0.484933
v -0.496767 -0.268634 -0.484933
v -0.496767 -0.268634 -0.317156
v -0.481257 -0.283876 -0.484933
v -0.314180 -0.283876 -0.484933
v -0.314180 -0.283876 -0.317156
v -0.481257 -0.283876 -0.317156
v -0.314180 0.283876 -0.317156
v -0.314180 0.283876 -0.484933
v -0.481257 0.283876 -0.484933
v -0.481257 0.283876 -0.317156
v -0.481257 0.268634 -0.500000
v -0.314180 0.268634 -0.500000
v -0.314180 -0.268634 -0.500000
v -0.481257 -0.268634 -0.500000
v -0.298670 0.268634 -0.484933
v -0.298670 0.268634 -0.317156
v -0.298670 -0.268634 -0.317156
v -0.298670 -0.268634 -0.484933
v -0.484490 0.320546 0.500000
v 0.484490 0.320546 0.500000
v 0.484490 0.484758 0.500000
v -0.484490 0.484758 0.500000
v 0.484490 0.500000 0.484933
v 0.484490 0.500000 0.317156
v -0.484490 0.500000 0.317156
v -0.484490 0.500000 0.484933
v -0.500000 0.484758 0.317156
v -0.500000 0.320546 0.317156
v -0.500000 0.320546 0.484933
v -0.500000 0.484758 0.484933
v 0.500000 0.320546 0.484933
v 0.500000 0.320546 0.317156
v 0.500000 0.484758 0.317156
v 0.500000 0.484758 0.484933
v 0.484490 0.484758 0.302089
v 0.484490 0.320546 0.302089
v -0.484490 0.320546 0.302089
v -0.484490 0.484758 0.302089
v 0.484490 0.305303 0.317156
v 0.484490 0.305303 0.484933
v -0.484490 0.305303 0.484933
v -0.484490 0.305303 0.317156
v 0.481257 -0.268634 0.500000
v 0.481257 0.268634 0.500000
v 0.314180 0.268634 0.500000
v 0.314180 -0.268634 0.500000
v 0.298670 0.268634 0.484933
v 0.298670 0.268634 0.317156
v 0.298670 -0.268634 0.317156
v 0.298670 -0.268634 0.484933
v 0.314180 -0.283876 0.317156
v 0.481257 -0.283876 0.317156
v 0.481257 -0.283876 0.484933
v 0.314180 -0.283876 0.484933
v 0.481257 0.283876 0.484933
v 0.481257 0.283876 0.317156
v 0.314180 0.283876 0.317156
v 0.314180 0.283876 0.484933
v 0.314180 0.268634 0.302089
v 0.481257 0.268634 0.302089
v 0.481257 -0.268634 0.302089
v 0.314180 -0.268634 0.302089
v 0.496766 0.268634 0.317156
v 0.496766 0.268634 0.484933
v 0.496766 -0.268634 0.484933
v 0.496766 -0.268634 0.317156
vt 0.028010 0.065002
vt 0.965218 0.065002
vt 0.965218 0.952952
vt 0.028010 0.952952
vt 0.028010 0.960542
vt 0.965218 0.960542
vt 0.965218 0.039419
vt 0.028010 0.039419
vt 0.028010 0.952952
vt 0.965218 0.952952
vt 0.965218 0.065002
vt 0.028010 0.065002
vt 0.028010 0.039419
vt 0.965218 0.039419
vt 0.965218 0.960542
vt 0.028010 0.960542
vt 0.065002 0.960542
vt 0.065002 0.039419
vt 0.952952 0.039419
vt 0.952952 0.960542
vt 0.065002 0.039419
vt 0.065002 0.960542
vt 0.952952 0.960542
vt 0.952952 0.039419
vt 0.814245 0.820548
vt 0.981322 0.820548
vt 0.981322 0.984758
vt 0.814245 0.984758
vt 0.981322 0.236383
vt 0.981322 0.763272
vt 0.814245 0.763272
vt 0.814245 0.236383
vt 0.763272 0.984758
vt 0.763272 0.820548
vt 0.236383 0.820548
vt 0.236383 0.984758
vt 0.236383 0.820548
vt 0.763272 0.820548
vt 0.763272 0.984758
vt 0.236383 0.984758
vt 0.981322 0.984758
vt 0.981322 0.820548
vt 0.814245 0.820548
vt 0.814245 0.984758
vt 0.981322 0.763272
vt 0.981322 0.236383
vt 0.814245 0.236383
vt 0.814245 0.763272
vt 0.185886 0.231367
vt 0.185886 0.768634
vt 0.018808 0.768634
vt 0.018808 0.231367
vt 0.014895 0.768634
vt 0.182671 0.768634
vt 0.182671 0.231367
vt 0.014895 0.231367
vt 0.018808 0.182671
vt 0.185886 0.182671
vt 0.185886 0.014895
vt 0.018808 0.014895
vt 0.185886 0.014895
vt 0.185886 0.182671
vt 0.018808 0.182671
vt 0.018808 0.014895
vt 0.018808 0.768634
vt 0.185886 0.768634
vt 0.185886 0.231367
vt 0.018808 0.231367
vt 0.182671 0.768634
vt 0.014895 0.768634
vt 0.014895 0.231367
vt 0.182671 0.231367
vt 0.015575 0.015243
vt 0.984556 0.015243
vt 0.984556 0.179454
vt 0.015575 0.179454
vt 0.984556 0.014895
vt 0.984556 0.182671
vt 0.015575 0.182671
vt 0.015575 0.014895
vt 0.182671 0.179454
vt 0.182671 0.015243
vt 0.014895 0.015243
vt 0.014895 0.179454
vt 0.014895 0.015243
vt 0.182671 0.015243
vt 0.182671 0.179454
vt 0.014895 0.179454
vt 0.984556 0.179454
vt 0.984556 0.015243
vt 0.015575 0.015243
vt 0.015575 0.179454
vt 0.984556 0.182671
vt 0.984556 0.014895
vt 0.015575 0.014895
vt 0.015575 0.182671
vt 0.814245 0.015243
vt 0.981322 0.015243
vt 0.981322 0.179453
vt 0.814245 0.179453
vt 0.981322 0.236383
vt 0.981322 0.763272
vt 0.814245 0.763272
vt 0.814245 0.236383
vt 0.763272 0.179453
vt 0.763272 0.015243
vt 0.236383 0.015243
vt 0.236383 0.179453
vt 0.236383 0.015243
vt 0.763272 0.015243
vt 0.763272 0.179453
vt 0.236383 0.179453
vt 0.981322 0.179453
vt 0.981322 0.015243
vt 0.814245 0.015243
vt 0.814245 0.179453
vt 0.981322 0.763272
vt 0.981322 0.236383
vt 0.814245 0.236383
vt 0.814245 0.763272
vt 0.018808 0.015243
vt 0.185886 0.015243
vt 0.185886 0.179453
vt 0.018808 0.179453
vt 0.185886 0.236383
vt 0.185886 0.763272
vt 0.018808 0.763272
vt 0.018808 0.236383
vt 0.763272 0.179453
vt 0.763272 0.015243
vt 0.236383 0.015243
vt 0.236383 0.179453
vt 0.236383 0.015243
vt 0.763272 0.015243
vt 0.763272 0.179453
vt 0.236383 0.179453
vt 0.185886 0.179453
vt 0.185886 0.015243
vt 0.018808 0.015243
vt 0.018808 0.179453
vt 0.185886 0.763272
vt 0.185886 0.236383
vt 0.018808 0.236383
vt 0.018808 0.763272
vt 0.018808 0.820548
vt 0.185886 0.820548
vt 0.185886 0.984758
vt 0.018808 0.984758
vt 0.185886 0.236383
vt 0.185886 0.763272
vt 0.018808 0.763272
vt 0.018808 0.236383
vt 0.763272 0.984758
vt 0.763272 0.820548
vt 0.236383 0.820548
vt 0.236383 0.984758
vt 0.236383 0.820548
vt 0.763272 0.820548
vt 0.763272 0.984758
vt 0.236383 0.984758
vt 0.185886 0.984758
vt 0.185886 0.820548
vt 0.018808 0.820548
vt 0.018808 0.984758
vt 0.185886 0.763272
vt 0.185886 0.236383
vt 0.018808 0.236383
vt 0.018808 0.763272
vt 0.015575 0.015243
vt 0.984556 0.015243
vt 0.984556 0.179454
vt 0.015575 0.179454
vt 0.984556 0.816984
vt 0.984556 0.984760
vt 0.015575 0.984760
vt 0.015575 0.816984
vt 0.984760 0.179454
vt 0.984760 0.015243
vt 0.816984 0.015243
vt 0.816984 0.179454
vt 0.816984 0.015243
vt 0.984760 0.015243
vt 0.984760 0.179454
vt 0.816984 0.179454
vt 0.984556 0.179454
vt 0.984556 0.015243
vt 0.015575 0.015243
vt 0.015575 0.179454
vt 0.984556 0.984760
vt 0.984556 0.816984
vt 0.015575 0.816984
vt 0.015575 0.984760
vt 0.015575 0.820547
vt 0.984556 0.820547
vt 0.984556 0.984758
vt 0.015575 0.984758
vt 0.984556 0.816984
vt 0.984556 0.984760
vt 0.015575 0.984760
vt 0.015575 0.816984
vt 0.984760 0.984758
vt 0.984760 0.820547
vt 0.816984 0.820547
vt 0.816984 0.984758
vt 0.816984 0.820547
vt 0.984760 0.820547
vt 0.984760 0.984758
vt 0.816984 0.984758
vt 0.984556 0.984758
vt 0.984556 0.820547
vt 0.015575 0.820547
vt 0.015575 0.984758
vt 0.984556 0.984760
vt 0.984556 0.816984
vt 0.015575 0.816984
vt 0.015575 0.984760
vt 0.981322 0.231367
vt 0.981322 0.768634
vt 0.814245 0.768634
vt 0.814245 0.231367
vt 0.816984 0.768634
vt 0.984760 0.768634
vt 0.984760 0.231367
vt 0.816984 0.231367
vt 0.814245 0.984760
vt 0.981322 0.984760
vt 0.981322 0.816984
vt 0.814245 0.816984
vt 0.981322 0.816984
vt 0.981322 0.984760
vt 0.814245 0.984760
vt 0.814245 0.816984
vt 0.814245 0.768634
vt 0.981322 0.768634
vt 0.981322 0.231367
vt 0.814245 0.231367
vt 0.984760 0.768634
vt 0.816984 0.768634
vt 0.816984 0.231367
vt 0.984760 0.231367
vt 0.185886 0.231367
vt 0.185886 0.768634
vt 0.018808 0.768634
vt 0.018808 0.231367
vt 0.816984 0.768634
vt 0.984760 0.768634
vt 0.984760 0.231367
vt 0.816984 0.231367
vt 0.018808 0.984760
vt 0.185886 0.984760
vt 0.185886 0.816984
vt 0.018808 0.816984
vt 0.185886 0.816984
vt 0.185886 0.984760
vt 0.018808 0.984760
vt 0.018808 0.816984
vt 0.018808 0.768634
vt 0.185886 0.768634
vt 0.185886 0.231367
vt 0.018808 0.231367
vt 0.984760 0.768634
vt 0.816984 0.768634
vt 0.816984 0.231367
vt 0.984760 0.231367
vt 0.015575 0.820547
vt 0.984556 0.820547
vt 0.984556 0.984758
vt 0.015575 0.984758
vt 0.984556 0.014895
vt 0.984556 0.182671
vt 0.015575 0.182671
vt 0.015575 0.014895
vt 0.182671 0.984758
vt 0.182671 0.820547
vt 0.014895 0.820547
vt 0.014895 0.984758
vt 0.014895 0.820547
vt 0.182671 0.820547
vt 0.182671 0.984758
vt 0.014895 0.984758
vt 0.984556 0.984758
vt 0.984556 0.820547
vt 0.015575 0.820547
vt 0.015575 0.984758
vt 0.984556 0.182671
vt 0.984556 0.014895
vt 0.015575 0.014895
vt 0.015575 0.182671
vt 0.981322 0.231367
vt 0.981322 0.768634
vt 0.814245 0.768634
vt 0.814245 0.231367
vt 0.014895 0.768634
vt 0.182671 0.768634
vt 0.182671 0.231367
vt 0.014895 0.231367
vt 0.814245 0.182671
vt 0.981322 0.182671
vt 0.981322 0.014895
vt 0.814245 0.014895
vt 0.981322 0.014895
vt 0.981322 0.182671
vt 0.814245 0.182671
vt 0.814245 0.014895
vt 0.814245 0.768634
vt 0.981322 0.768634
vt 0.981322 0.231367
vt 0.814245 0.231367
vt 0.182671 0.768634
vt 0.014895 0.768634
vt 0.014895 0.231367
vt 0.182671 0.231367
vt 0.798735 0.984758
vt 0.798735 0.820548
vt 0.814245 1.000000
vt 0.981322 1.000000
vt 0.798735 0.236383
vt 0.798735 0.763272
vt 0.996832 0.984758
vt 0.996832 0.820548
vt 0.996832 0.236383
vt 0.996832 0.763272
vt 0.798735 0.984758
vt 0.798735 0.820548
vt 0.814245 1.000000
vt 0.981322 1.000000
vt 0.996832 0.984758
vt 0.996832 0.820548
vt 0.798735 0.763272
vt 0.798735 0.236383
vt 0.814245 0.805305
vt 0.981322 0.805305
vt 0.996832 0.763272
vt 0.996832 0.236383
vt 0.814245 0.805305
vt 0.981322 0.805305
vt 0.018808 0.216125
vt 0.185886 0.216125
vt 0.003299 0.231367
vt 0.003299 0.768634
vt 0.003299 0.014895
vt 0.003299 0.182671
vt 0.018808 0.783876
vt 0.185886 0.783876
vt 0.003299 0.014895
vt 0.003299 0.182671
vt 0.018808 0.216125
vt 0.185886 0.216125
vt 0.003299 0.231367
vt 0.003299 0.768634
vt 0.018808 0.783876
vt 0.185886 0.783876
vt 0.201395 0.182671
vt 0.201395 0.014895
vt 0.201395 0.231367
vt 0.201395 0.768634
vt 0.201395 0.182671
vt 0.201395 0.014895
vt 0.201395 0.231367
vt 0.201395 0.768634
vt 0.000065 0.179454
vt 0.000065 0.015243
vt 0.015575 0.194697
vt 0.984556 0.194697
vt 0.000065 0.014895
vt 0.000065 0.182671
vt 1.000065 0.179454
vt 1.000065 0.015243
vt 1.000065 0.014895
vt 1.000065 0.182671
vt 0.000065 0.179454
vt 0.000065 0.015243
vt 0.015575 0.194697
vt 0.984556 0.194697
vt 1.000065 0.179454
vt 1.000065 0.015243
vt 0.000065 0.182671
vt 0.000065 0.014895
vt 0.015575 0.000000
vt 0.984556 0.000000
vt 1.000065 0.182671
vt 1.000065 0.014895
vt 0.015575 0.000000
vt 0.984556 0.000000
vt 0.798735 0.179453
vt 0.798735 0.015243
vt 0.814245 0.194696
vt 0.981322 0.194696
vt 0.798735 0.236383
vt 0.798735 0.763272
vt 0.996832 0.179453
vt 0.996832 0.015243
vt 0.996832 0.236383
vt 0.996832 0.763272
vt 0.798735 0.179453
vt 0.798735 0.015243
vt 0.814245 0.194696
vt 0.981322 0.194696
vt 0.996832 0.179453
vt 0.996832 0.015243
vt 0.798735 0.763272
vt 0.798735 0.236383
vt 0.814245 0.000000
vt 0.981322 0.000000
vt 0.996832 0.763272
vt 0.996832 0.236383
vt 0.814245 0.000000
vt 0.981322 0.000000
vt 0.003299 0.179453
vt 0.003299 0.015243
vt 0.018808 0.194696
vt 0.185886 0.194696
vt 0.003299 0.236383
vt 0.003299 0.763272
vt 0.201395 0.179453
vt 0.201395 0.015243
vt 0.201395 0.236383
vt 0.201395 0.763272
vt 0.003299 0.179453
vt 0.003299 0.015243
vt 0.018808 0.194696
vt 0.185886 0.194696
vt 0.201395 0.179453
vt 0.201395 0.015243
vt 0.003299 0.763272
vt 0.003299 0.236383
vt 0.018808 0.000000
vt 0.185886 0.000000
vt 0.201395 0.763272
vt 0.201395 0.236383
vt 0.018808 0.000000
vt 0.185886 0.000000
vt 0.003299 0.984758
vt 0.003299 0.820548
vt 0.018808 1.000000
vt 0.185886 1.000000
vt 0.003299 0.236383
vt 0.003299 0.763272
vt 0.201395 0.984758
vt 0.201395 0.820548
vt 0.201395 0.236383
vt 0.201395 0.763272
vt 0.003299 0.984758
vt 0.003299 0.820548
vt 0.018808 1.000000
vt 0.185886 1.000000
vt 0.201395 0.984758
vt 0.201395 0.820548
vt 0.003299 0.763272
vt 0.003299 0.236383
vt 0.018808 0.805305
vt 0.185886 0.805305
vt 0.201395 0.763272
vt 0.201395 0.236383
vt 0.018808 0.805305
vt 0.185886 0.805305
vt 0.000065 0.179454
vt 0.000065 0.015243
vt 0.015575 0.194697
vt 0.984556 0.194697
vt 0.000065 0.816984
vt 0.000065 0.984760
vt 1.000065 0.179454
vt 1.000065 0.015243
vt 1.000065 0.816984
vt 1.000065 0.984760
vt 0.000065 0.179454
vt 0.000065 0.015243
vt 0.015575 0.194697
vt 0.984556 0.194697
vt 1.000065 0.179454
vt 1.000065 0.015243
vt 0.000065 0.984760
vt 0.000065 0.816984
vt 0.015575 0.000000
vt 0.984556 0.000000
vt 1.000065 0.984760
vt 1.000065 0.816984
vt 0.015575 0.000000
vt 0.984556 0.000000
vt 0.000065 0.984758
vt 0.000065 0.820547
vt 0.015575 1.000000
vt 0.984556 1.000000
vt 0.000065 0.816984
vt 0.000065 0.984760
vt 1.000065 0.984758
vt 1.000065 0.820547
vt 1.000065 0.816984
vt 1.000065 0.984760
vt 0.000065 0.820547
vt 0.015575 1.000000
vt 0.984556 1.000000
vt 1.000065 0.820547
vt 0.000065 0.984760
vt 0.000065 0.816984
vt 0.015575 0.805304
vt 0.984556 0.805304
vt 1.000065 0.984760
vt 1.000065 0.816984
vt 0.015575 0.805304
vt 0.984556 0.805304
vt 0.814245 0.216125
vt 0.981322 0.216125
vt 0.798735 0.231367
vt 0.798735 0.768634
vt 0.798735 0.816984
vt 0.798735 0.984760
vt 0.814245 0.783876
vt 0.981322 0.783876
vt 0.798735 0.816984
vt 0.798735 0.984760
vt 0.814245 0.216125
vt 0.981322 0.216125
vt 0.798735 0.231367
vt 0.798735 0.768634
vt 0.814245 0.783876
vt 0.981322 0.783876
vt 0.996832 0.984760
vt 0.996832 0.816984
vt 0.996832 0.231367
vt 0.996832 0.768634
vt 0.996832 0.984760
vt 0.996832 0.816984
vt 0.996832 0.231367
vt 0.996832 0.768634
vt 0.018808 0.216125
vt 0.185886 0.216125
vt 0.003299 0.231367
vt 0.003299 0.768634
vt 0.003299 0.816984
vt 0.003299 0.984760
vt 0.018808 0.783876
vt 0.185886 0.783876
vt 0.003299 0.816984
vt 0.003299 0.984760
vt 0.018808 0.216125
vt 0.185886 0.216125
vt 0.003299 0.231367
vt 0.003299 0.768634
vt 0.018808 0.783876
vt 0.185886 0.783876
vt 0.201395 0.984760
vt 0.201395 0.816984
vt 0.201395 0.231367
vt 0.201395 0.768634
vt 0.201395 0.984760
vt 0.201395 0.816984
vt 0.201395 0.231367
vt 0.201395 0.768634
vt 0.000065 0.984758
vt 0.000065 0.820547
vt 0.015575 1.000000
vt 0.984556 1.000000
vt 0.000065 0.014895
vt 0.000065 0.182671
vt 1.000065 0.984758
vt 1.000065 0.820547
vt 1.000065 0.014895
vt 1.000065 0.182671
vt 0.000065 0.984758
vt 0.000065 0.820547
vt 0.015575 1.000000
vt 0.984556 1.000000
vt 1.000065 0.984758
vt 1.000065 0.820547
vt 0.000065 0.182671
vt 0.000065 0.014895
vt 0.015575 0.805304
vt 0.984556 0.805304
vt 1.000065 0.182671
vt 1.000065 0.014895
vt 0.015575 0.805304
vt 0.984556 0.805304
vt 0.814245 0.216125
vt 0.981322 0.216125
vt 0.798735 0.231367
vt 0.798735 0.768634
vt 0.798735 0.014895
vt 0.798735 0.182671
vt 0.814245 0.783876
vt 0.981322 0.783876
vt 0.798735 0.014895
vt 0.798735 0.182671
vt 0.814245 0.216125
vt 0.981322 0.216125
vt 0.798735 0.231367
vt 0.798735 0.768634
vt 0.814245 0.783876
vt 0.981322 0.783876
vt 0.996832 0.182671
vt 0.996832 0.014895
vt 0.996832 0.231367
vt 0.996832 0.768634
vt 0.996832 0.182671
vt 0.996832 0.014895
vt 0.996832 0.231367
vt 0.996832 0.768634
vn 0.0000 1.0000 0.0000
vn 0.0000 0.0000 -1.0000
vn 0.0000 -1.0000 0.0000
vn 0.0000 0.0000 1.0000
vn 1.0000 0.0000 0.0000
vn -1.0000 0.0000 0.0000
vn -0.6968 0.0000 0.7173
vn 0.0000 0.7030 0.7112
vn -0.7009 0.7132 0.0000
vn 0.6968 0.0000 0.7173
vn 0.7009 0.7132 0.0000
vn -0.6968 0.0000 -0.7173
vn 0.0000 0.7030 -0.7112
vn 0.6968 0.0000 -0.7173
vn -0.7010 -0.7132 0.0000
vn 0.0000 -0.7030 -0.7112
vn 0.7010 -0.7132 0.0000
vn 0.0000 -0.7030 0.7112
vn -0.7009 -0.7132 0.0000
vn 0.7009 -0.7132 0.0000
vn -0.7010 0.7132 0.0000
vn 0.7010 0.7132 0.0000
vn -0.5684 0.5784 0.5851
vn 0.5684 0.5784 0.5851
vn -0.5684 0.5784 -0.5851
vn 0.5684 0.5784 -0.5851
vn -0.5684 -0.5784 -0.5851
vn 0.5684 -0.5784 -0.5851
vn -0.5684 -0.5784 0.5851
vn 0.5684 -0.5784 0.5851
g crate_(copy)_crate_(copy)_Default_OBJ
usemtl Default_OBJ
s 1
f 1/1/1 2/2/1 3/3/1 4/4/1
f 4/5/2 3/6/2 5/7/2 6/8/2
f 6/9/3 5/10/3 7/11/3 8/12/3
f 8/13/4 7/14/4 2/15/4 1/16/4
f 2/17/5 7/18/5 5/19/5 3/20/5
f 8/21/6 1/22/6 4/23/6 6/24/6
f 9/25/4 10/26/4 11/27/4 12/28/4
f 13/29/1 14/30/1 15/31/1 16/32/1
f 17/33/6 18/34/6 19/35/6 20/36/6
f 21/37/5 22/38/5 23/39/5 24/40/5
f 25/41/2 26/42/2 27/43/2 28/44/2
f 29/45/3 30/46/3 31/47/3 32/48/3
f 33/49/4 34/50/4 35/51/4 36/52/4
f 37/53/6 38/54/6 39/55/6 40/56/6
f 41/57/3 42/58/3 43/59/3 44/60/3
f 45/61/1 46/62/1 47/63/1 48/64/1
f 49/65/2 50/66/2 51/67/2 52/68/2
f 53/69/5 54/70/5 55/71/5 56/72/5
f 57/73/4 58/74/4 59/75/4 60/76/4
f 61/77/1 62/78/1 63/79/1 64/80/1
f 65/81/6 66/82/6 67/83/6 68/84/6
f 69/85/5 70/86/5 71/87/5 72/88/5
f 73/89/2 74/90/2 75/91/2 76/92/2
f 77/93/3 78/94/3 79/95/3 80/96/3
f 81/97/4 82/98/4 83/99/4 84/100/4
f 85/101/1 86/102/1 87/103/1 88/104/1
f 89/105/6 90/106/6 91/107/6 92/108/6
f 93/109/5 94/110/5 95/111/5 96/112/5
f 97/113/2 98/114/2 99/115/2 100/116/2
f 101/117/3 102/118/3 103/119/3 104/120/3
f 105/121/4 106/122/4 107/123/4 108/124/4
f 109/125/1 110/126/1 111/127/1 112/128/1
f 113/129/6 114/130/6 115/131/6 116/132/6
f 117/133/5 118/134/5 119/135/5 120/136/5
f 121/137/2 122/138/2 123/139/2 124/140/2
f 125/141/3 126/142/3 127/143/3 128/144/3
f 129/145/4 130/146/4 131/147/4 132/148/4
f 133/149/1 134/150/1 135/151/1 136/152/1
f 137/153/6 138/154/6 139/155/6 140/156/6
f 141/157/5 142/158/5 143/159/5 144/160/5
f 145/161/2 146/162/2 147/163/2 148/164/2
f 149/165/3 150/166/3 151/167/3 152/168/3
f 153/169/4 154/170/4 155/171/4 156/172/4
f 157/173/1 158/174/1 159/175/1 160/176/1
f 161/177/6 162/178/6 163/179/6 164/180/6
f 165/181/5 166/182/5 167/183/5 168/184/5
f 169/185/2 170/186/2 171/187/2 172/188/2
f 173/189/3 174/190/3 175/191/3 176/192/3
f 177/193/4 178/194/4 179/195/4 180/196/4
f 181/197/1 182/198/1 183/199/1 184/200/1
f 185/201/6 186/202/6 187/203/6 188/204/6
f 189/205/5 190/206/5 191/207/5 192/208/5
f 193/209/2 194/210/2 195/211/2 196/212/2
f 197/213/3 198/214/3 199/215/3 200/216/3
f 201/217/4 202/218/4 203/219/4 204/220/4
f 205/221/6 206/222/6 207/223/6 208/224/6
f 209/225/3 210/226/3 211/227/3 212/228/3
f 213/229/1 214/230/1 215/231/1 216/232/1
f 217/233/2 218/234/2 219/235/2 220/236/2
f 221/237/5 222/238/5 223/239/5 224/240/5
f 225/241/4 226/242/4 227/243/4 228/244/4
f 229/245/6 230/246/6 231/247/6 232/248/6
f 233/249/3 234/250/3 235/251/3 236/252/3
f 237/253/1 238/254/1 239/255/1 240/256/1
f 241/257/2 242/258/2 243/259/2 244/260/2
f 245/261/5 246/262/5 247/263/5 248/264/5
f 249/265/4 250/266/4 251/267/4 252/268/4
f 253/269/1 254/270/1 255/271/1 256/272/1
f 257/273/6 258/274/6 259/275/6 260/276/6
f 261/277/5 262/278/5 263/279/5 264/280/5
f 265/281/2 266/282/2 267/283/2 268/284/2
f 269/285/3 270/286/3 271/287/3 272/288/3
f 273/289/4 274/290/4 275/291/4 276/292/4
f 277/293/6 278/294/6 279/295/6 280/296/6
f 281/297/3 282/298/3 283/299/3 284/300/3
f 285/301/1 286/302/1 287/303/1 288/304/1
f 289/305/2 290/306/2 291/307/2 292/308/2
f 293/309/5 294/310/5 295/311/5 296/312/5
f 12/28/7 20/313/7 19/314/7 9/25/7
f 16/315/8 12/28/8 11/27/8 13/316/8
f 20/317/9 16/32/9 15/31/9 17/318/9
f 24/319/10 11/27/10 10/26/10 21/320/10
f 13/29/11 24/321/11 23/322/11 14/30/11
f 17/323/12 28/44/12 27/43/12 18/324/12
f 28/44/13 15/325/13 14/326/13 25/41/13
f 25/41/14 23/327/14 22/328/14 26/42/14
f 18/329/15 32/48/15 31/47/15 19/330/15
f 32/331/16 27/43/16 26/42/16 29/332/16
f 29/45/17 22/333/17 21/334/17 30/46/17
f 9/25/18 31/335/18 30/336/18 10/26/18
f 36/52/18 44/337/18 43/338/18 33/49/18
f 40/339/7 36/52/7 35/51/7 37/340/7
f 44/60/19 40/341/19 39/342/19 41/57/19
f 48/343/8 35/51/8 34/50/8 45/344/8
f 37/345/9 48/64/9 47/63/9 38/346/9
f 41/347/16 52/68/16 51/67/16 42/348/16
f 52/68/12 39/349/12 38/350/12 49/65/12
f 49/65/13 47/351/13 46/352/13 50/66/13
f 42/58/20 56/353/20 55/354/20 43/59/20
f 56/355/14 51/67/14 50/66/14 53/356/14
f 53/357/11 46/62/11 45/61/11 54/358/11
f 33/49/10 55/359/10 54/360/10 34/50/10
f 60/76/7 68/361/7 67/362/7 57/73/7
f 64/363/8 60/76/8 59/75/8 61/364/8
f 68/365/21 64/80/21 63/79/21 65/366/21
f 72/367/10 59/75/10 58/74/10 69/368/10
f 61/77/22 72/369/22 71/370/22 62/78/22
f 65/371/12 76/92/12 75/91/12 66/372/12
f 76/92/13 63/373/13 62/374/13 73/89/13
f 73/89/14 71/375/14 70/376/14 74/90/14
f 66/377/19 80/96/19 79/95/19 67/378/19
f 80/379/16 75/91/16 74/90/16 77/380/16
f 77/93/20 70/381/20 69/382/20 78/94/20
f 57/73/18 79/383/18 78/384/18 58/74/18
f 84/100/7 92/385/7 91/386/7 81/97/7
f 88/387/8 84/100/8 83/99/8 85/388/8
f 92/389/21 88/104/21 87/103/21 89/390/21
f 96/391/10 83/99/10 82/98/10 93/392/10
f 85/101/22 96/393/22 95/394/22 86/102/22
f 89/395/12 100/116/12 99/115/12 90/396/12
f 100/116/13 87/397/13 86/398/13 97/113/13
f 97/113/14 95/399/14 94/400/14 98/114/14
f 90/401/19 104/120/19 103/119/19 91/402/19
f 104/403/16 99/115/16 98/114/16 101/404/16
f 101/117/20 94/405/20 93/406/20 102/118/20
f 81/97/18 103/407/18 102/408/18 82/98/18
f 108/124/7 116/409/7 115/410/7 105/121/7
f 112/411/8 108/124/8 107/123/8 109/412/8
f 116/413/21 112/128/21 111/127/21 113/414/21
f 120/415/10 107/123/10 106/122/10 117/416/10
f 109/125/22 120/417/22 119/418/22 110/126/22
f 113/419/12 124/140/12 123/139/12 114/420/12
f 124/140/13 111/421/13 110/422/13 121/137/13
f 121/137/14 119/423/14 118/424/14 122/138/14
f 114/425/19 128/144/19 127/143/19 115/426/19
f 128/427/16 123/139/16 122/138/16 125/428/16
f 125/141/20 118/429/20 117/430/20 126/142/20
f 105/121/18 127/431/18 126/432/18 106/122/18
f 132/148/7 140/433/7 139/434/7 129/145/7
f 136/435/8 132/148/8 131/147/8 133/436/8
f 140/437/9 136/152/9 135/151/9 137/438/9
f 144/439/10 131/147/10 130/146/10 141/440/10
f 133/149/11 144/441/11 143/442/11 134/150/11
f 137/443/12 148/164/12 147/163/12 138/444/12
f 148/164/13 135/445/13 134/446/13 145/161/13
f 145/161/14 143/447/14 142/448/14 146/162/14
f 138/449/15 152/168/15 151/167/15 139/450/15
f 152/451/16 147/163/16 146/162/16 149/452/16
f 149/165/17 142/453/17 141/454/17 150/166/17
f 129/145/18 151/455/18 150/456/18 130/146/18
f 156/172/7 164/457/7 163/458/7 153/169/7
f 160/459/8 156/172/8 155/171/8 157/460/8
f 164/461/21 160/176/21 159/175/21 161/462/21
f 168/463/10 155/171/10 154/170/10 165/464/10
f 157/173/22 168/465/22 167/466/22 158/174/22
f 161/467/12 172/188/12 171/187/12 162/468/12
f 172/188/13 159/469/13 158/470/13 169/185/13
f 169/185/14 167/471/14 166/472/14 170/186/14
f 162/473/19 176/192/19 175/191/19 163/474/19
f 176/475/16 171/187/16 170/186/16 173/476/16
f 173/189/20 166/477/20 165/478/20 174/190/20
f 153/169/18 175/479/18 174/480/18 154/170/18
f 180/196/7 188/481/7 187/482/7 177/193/7
f 184/483/8 180/196/8 179/195/8 181/484/8
f 188/485/9 184/200/9 183/199/9 185/486/9
f 192/487/10 179/195/10 178/194/10 189/488/10
f 181/197/11 192/489/11 191/490/11 182/198/11
f 185/486/12 196/212/12 195/211/12 186/491/12
f 196/212/13 183/492/13 182/493/13 193/209/13
f 193/209/14 191/490/14 190/494/14 194/210/14
f 186/495/15 200/216/15 199/215/15 187/496/15
f 200/497/16 195/211/16 194/210/16 197/498/16
f 197/213/17 190/499/17 189/500/17 198/214/17
f 177/193/18 199/501/18 198/502/18 178/194/18
f 204/220/18 212/503/18 211/504/18 201/217/18
f 208/505/7 204/220/7 203/219/7 205/506/7
f 212/228/19 208/507/19 207/508/19 209/225/19
f 216/509/8 203/219/8 202/218/8 213/510/8
f 205/511/9 216/232/9 215/231/9 206/512/9
f 209/513/16 220/236/16 219/235/16 210/514/16
f 220/236/12 207/515/12 206/516/12 217/233/12
f 217/233/13 215/517/13 214/518/13 218/234/13
f 210/226/20 224/519/20 223/520/20 211/227/20
f 224/521/14 219/235/14 218/234/14 221/522/14
f 221/523/11 214/230/11 213/229/11 222/524/11
f 201/217/10 223/525/10 222/526/10 202/218/10
f 228/244/18 236/527/18 235/528/18 225/241/18
f 232/529/7 228/244/7 227/243/7 229/530/7
f 236/252/19 232/531/19 231/532/19 233/249/19
f 240/533/8 227/243/8 226/242/8 237/534/8
f 229/535/9 240/256/9 239/255/9 230/536/9
f 233/537/16 244/260/16 243/259/16 234/538/16
f 244/260/12 231/539/12 230/540/12 241/257/12
f 241/257/13 239/541/13 238/542/13 242/258/13
f 234/250/20 248/543/20 247/544/20 235/251/20
f 248/545/14 243/259/14 242/258/14 245/546/14
f 245/547/11 238/254/11 237/253/11 246/548/11
f 225/241/10 247/549/10 246/550/10 226/242/10
f 252/268/7 260/551/7 259/552/7 249/265/7
f 256/553/8 252/268/8 251/267/8 253/554/8
f 260/555/9 256/272/9 255/271/9 257/556/9
f 264/557/10 251/267/10 250/266/10 261/558/10
f 253/269/11 264/559/11 263/560/11 254/270/11
f 257/561/12 268/284/12 267/283/12 258/562/12
f 268/284/13 255/563/13 254/564/13 265/281/13
f 265/281/14 263/565/14 262/566/14 266/282/14
f 258/567/15 272/288/15 271/287/15 259/568/15
f 272/569/16 267/283/16 266/282/16 269/570/16
f 269/285/17 262/571/17 261/572/17 270/286/17
f 249/265/18 271/573/18 270/574/18 250/266/18
f 276/292/18 284/575/18 283/576/18 273/289/18
f 280/577/7 276/292/7 275/291/7 277/578/7
f 284/300/19 280/579/19 279/580/19 281/297/19
f 288/581/8 275/291/8 274/290/8 285/582/8
f 277/583/9 288/304/9 287/303/9 278/584/9
f 281/585/16 292/308/16 291/307/16 282/586/16
f 292/308/12 279/587/12 278/588/12 289/305/12
f 289/305/13 287/589/13 286/590/13 290/306/13
f 282/298/20 296/591/20 295/592/20 283/299/20
f 296/593/14 291/307/14 290/306/14 293/594/14
f 293/595/11 286/302/11 285/301/11 294/596/11
f 273/289/10 295/597/10 294/598/10 274/290/10
f 20/313/23 12/28/23 16/315/23
f 11/27/24 24/319/24 13/316/24
f 28/44/25 17/323/25 15/325/25
f 23/327/26 25/41/26 14/326/26
f 32/331/27 18/324/27 27/43/27
f 22/328/28 29/332/28 26/42/28
f 9/25/29 19/314/29 31/335/29
f 21/320/30 10/26/30 30/336/30
f 44/337/29 36/52/29 40/339/29
f 35/51/23 48/343/23 37/340/23
f 52/68/27 41/347/27 39/349/27
f 47/351/25 49/65/25 38/350/25
f 56/355/28 42/348/28 51/67/28
f 46/352/26 53/356/26 50/66/26
f 33/49/30 43/338/30 55/359/30
f 45/344/24 34/50/24 54/360/24
f 68/361/23 60/76/23 64/363/23
f 59/75/24 72/367/24 61/364/24
f 76/92/25 65/371/25 63/373/25
f 71/375/26 73/89/26 62/374/26
f 80/379/27 66/372/27 75/91/27
f 70/376/28 77/380/28 74/90/28
f 57/73/29 67/362/29 79/383/29
f 69/368/30 58/74/30 78/384/30
f 92/385/23 84/100/23 88/387/23
f 83/99/24 96/391/24 85/388/24
f 100/116/25 89/395/25 87/397/25
f 95/399/26 97/113/26 86/398/26
f 104/403/27 90/396/27 99/115/27
f 94/400/28 101/404/28 98/114/28
f 81/97/29 91/386/29 103/407/29
f 93/392/30 82/98/30 102/408/30
f 116/409/23 108/124/23 112/411/23
f 107/123/24 120/415/24 109/412/24
f 124/140/25 113/419/25 111/421/25
f 119/423/26 121/137/26 110/422/26
f 128/427/27 114/420/27 123/139/27
f 118/424/28 125/428/28 122/138/28
f 105/121/29 115/410/29 127/431/29
f 117/416/30 106/122/30 126/432/30
f 140/433/23 132/148/23 136/435/23
f 131/147/24 144/439/24 133/436/24
f 148/164/25 137/443/25 135/445/25
f 143/447/26 145/161/26 134/446/26
f 152/451/27 138/444/27 147/163/27
f 142/448/28 149/452/28 146/162/28
f 129/145/29 139/434/29 151/455/29
f 141/440/30 130/146/30 150/456/30
f 164/457/23 156/172/23 160/459/23
f 155/171/24 168/463/24 157/460/24
f 172/188/25 161/467/25 159/469/25
f 167/471/26 169/185/26 158/470/26
f 176/475/27 162/468/27 171/187/27
f 166/472/28 173/476/28 170/186/28
f 153/169/29 163/458/29 175/479/29
f 165/464/30 154/170/30 174/480/30
f 188/481/23 180/196/23 184/483/23
f 179/195/24 192/487/24 181/484/24
f 196/212/25 185/486/25 183/492/25
f 191/490/26 193/209/26 182/493/26
f 200/497/27 186/491/27 195/211/27
f 190/494/28 197/498/28 194/210/28
f 177/193/29 187/482/29 199/501/29
f 189/488/30 178/194/30 198/502/30
f 212/503/29 204/220/29 208/505/29
f 203/219/23 216/509/23 205/506/23
f 220/236/27 209/513/27 207/515/27
f 215/517/25 217/233/25 206/516/25
f 224/521/28 210/514/28 219/235/28
f 214/518/26 221/522/26 218/234/26
f 201/217/30 211/504/30 223/525/30
f 213/510/24 202/218/24 222/526/24
f 236/527/29 228/244/29 232/529/29
f 227/243/23 240/533/23 229/530/23
f 244/260/27 233/537/27 231/539/27
f 239/541/25 241/257/25 230/540/25
f 248/545/28 234/538/28 243/259/28
f 238/542/26 245/546/26 242/258/26
f 225/241/30 235/528/30 247/549/30
f 237/534/24 226/242/24 246/550/24
f 260/551/23 252/268/23 256/553/23
f 251/267/24 264/557/24 253/554/24
f 268/284/25 257/561/25 255/563/25
f 263/565/26 265/281/26 254/564/26
f 272/569/27 258/562/27 267/283/27
f 262/566/28 269/570/28 266/282/28
f 249/265/29 259/552/29 271/573/29
f 261/558/30 250/266/30 270/574/30
f 284/575/29 276/292/29 280/577/29
f 275/291/23 288/581/23 277/578/23
f 292/308/27 281/585/27 279/587/27
f 287/589/25 289/305/25 278/588/25
f 296/593/28 282/586/28 291/307/28
f 286/590/26 293/594/26 290/306/26
f 273/289/30 283/576/30 295/597/30
f 285/582/24 274/290/24 294/598/24
