[gd_resource type="SpatialMaterial" load_steps=2 format=2]

[ext_resource path="res://textures/rainbow.jpg" type="Texture" id=1]

[resource]
flags_transparent = true
flags_unshaded = true
vertex_color_use_as_albedo = true
params_cull_mode = 2
albedo_color = Color( 1, 1, 1, 0.588235 )
albedo_texture = ExtResource( 1 )
