[gd_scene load_steps=5 format=2]

[ext_resource path="res://scenes/enemies/turret/Bullet.gd" type="Script" id=1]

[sub_resource type="CubeMesh" id=1]
size = Vector3( 0.2, 0.2, 0.2 )

[sub_resource type="SpatialMaterial" id=2]
albedo_color = Color( 0.631373, 0.207843, 0.615686, 1 )

[sub_resource type="BoxShape" id=3]
extents = Vector3( 0.1, 0.1, 0.1 )

[node name="Bullet" type="Area"]
script = ExtResource( 1 )

[node name="MeshInstance" type="MeshInstance" parent="."]
mesh = SubResource( 1 )
material/0 = SubResource( 2 )

[node name="CollisionShape" type="CollisionShape" parent="."]
shape = SubResource( 3 )
