# Blender v2.80 (sub 75) OBJ File: 'kitty-ball.blend'
# www.blender.org
mtllib curve.mtl
o Curve_SurfPatch.005
v 9.889092 4.264334 120.884972
v 8.570546 2.379486 120.884972
v 7.252002 0.763901 120.884972
v 5.933457 -0.582419 120.884972
v 4.614914 -1.659473 120.884972
v 3.296370 -2.467267 120.884972
v 1.977826 -3.005801 120.884972
v 0.659282 -3.275061 120.884972
v -0.659263 -3.275061 120.884972
v -1.977808 -3.005807 120.884972
v -3.296352 -2.467287 120.884972
v -4.614896 -1.659487 120.884972
v -5.933441 -0.582436 120.884972
v -7.251985 0.763881 120.884972
v -8.570528 2.379456 120.884972
v -9.889072 4.264300 120.884972
v 9.889092 2.379486 83.410843
v 8.570544 0.424271 83.410843
v 7.252003 -1.251633 83.410843
v 5.933459 -2.648214 83.410843
v 4.614913 -3.765481 83.410843
v 3.296371 -4.603428 83.410843
v 1.977826 -5.162069 83.410843
v 0.659282 -5.441376 83.410843
v -0.659263 -5.441382 83.410843
v -1.977807 -5.162069 83.410843
v -3.296351 -4.603442 83.410843
v -4.614896 -3.765488 83.410843
v -5.933441 -2.648227 83.410843
v -7.251984 -1.251647 83.410843
v -8.570527 0.424245 83.410843
v -9.889072 2.379456 83.410843
vn 0.8031 -0.5950 0.0310
vn 0.8019 -0.5966 0.0311
vn 0.8240 -0.5658 0.0290
vn 0.7517 -0.6585 0.0354
vn 0.7501 -0.6603 0.0355
vn 0.6817 -0.7305 0.0402
vn 0.6797 -0.7323 0.0403
vn 0.5864 -0.8087 0.0454
vn 0.5841 -0.8104 0.0455
vn 0.4589 -0.8870 0.0505
vn 0.4565 -0.8883 0.0506
vn 0.2957 -0.9537 0.0548
vn 0.2938 -0.9543 0.0548
vn 0.1026 -0.9930 0.0573
vn 0.1018 -0.9931 0.0573
vn -0.1026 -0.9930 0.0573
vn -0.1018 -0.9931 0.0573
vn -0.2957 -0.9537 0.0548
vn -0.2938 -0.9543 0.0548
vn -0.4589 -0.8870 0.0505
vn -0.4565 -0.8883 0.0506
vn -0.5864 -0.8087 0.0454
vn -0.5841 -0.8104 0.0455
vn -0.6817 -0.7305 0.0402
vn -0.6797 -0.7323 0.0403
vn -0.7517 -0.6585 0.0354
vn -0.7501 -0.6603 0.0355
vn -0.8031 -0.5950 0.0310
vn -0.8019 -0.5966 0.0311
vn -0.8240 -0.5658 0.0290
usemtl Material.003
s 1
f 2//1 18//2 17//3 1//3
f 3//4 19//5 18//2 2//1
f 4//6 20//7 19//5 3//4
f 5//8 21//9 20//7 4//6
f 6//10 22//11 21//9 5//8
f 7//12 23//13 22//11 6//10
f 8//14 24//15 23//13 7//12
f 9//16 25//17 24//15 8//14
f 10//18 26//19 25//17 9//16
f 11//20 27//21 26//19 10//18
f 12//22 28//23 27//21 11//20
f 13//24 29//25 28//23 12//22
f 14//26 30//27 29//25 13//24
f 15//28 31//29 30//27 14//26
f 16//30 32//30 31//29 15//28
