<?xml version="1.0" encoding="utf-8"?>
<COLLADA xmlns="http://www.collada.org/2005/11/COLLADASchema" version="1.4.1">
<asset>
	<contributor>
		<author>Anonymous</author>
		<authoring_tool>Collada Exporter for Blender 2.6+, by Juan Linietsky (juan@codenix.com)</authoring_tool>
	</contributor>
	<created>2019-04-15T21:45:50Z</created>
	<modified>2019-04-15T21:45:50Z</modified>
	<unit meter="1.0" name="meter"/>
	<up_axis>Z_UP</up_axis>
</asset>
<library_effects>
	<effect id="id-fx-4" name="grass-fx">
		<profile_COMMON>
			<technique sid="common">
				<blinn>
					<emission>
						<color>  0.0 0.0 0.0 1.0 </color>
					</emission>
					<ambient>
						<color>  0.0 0.0 0.0 1.0 </color>
					</ambient>
					<diffuse>
						<color>  0.10588199057999237 0.7529409997603445 0.5254900056941807 1.0 </color>
					</diffuse>
					<specular>
						<color>  0.25 0.25 0.25 1.0 </color>
					</specular>
					<shininess>
						<float>50</float>
					</shininess>
					<reflective>
						<color>  1.0 1.0 1.0 1.0 </color>
					</reflective>
					<index_of_refraction>
						<float>4.0</float>
					</index_of_refraction>
				</blinn>
				<extra>
					<technique profile="FCOLLADA">
					</technique>
					<technique profile="GOOGLEEARTH">
						<double_sided>0</double_sided>
					</technique>
				</extra>
			</technique>
		</profile_COMMON>
	</effect>
	<effect id="id-fx-6" name="dirt-fx">
		<profile_COMMON>
			<technique sid="common">
				<blinn>
					<emission>
						<color>  0.0 0.0 0.0 1.0 </color>
					</emission>
					<ambient>
						<color>  0.0 0.0 0.0 1.0 </color>
					</ambient>
					<diffuse>
						<color>  0.8784310221672058 0.5764709866000572 0.3725489944250402 1.0 </color>
					</diffuse>
					<specular>
						<color>  0.25 0.25 0.25 1.0 </color>
					</specular>
					<shininess>
						<float>50</float>
					</shininess>
					<reflective>
						<color>  1.0 1.0 1.0 1.0 </color>
					</reflective>
					<index_of_refraction>
						<float>4.0</float>
					</index_of_refraction>
				</blinn>
				<extra>
					<technique profile="FCOLLADA">
					</technique>
					<technique profile="GOOGLEEARTH">
						<double_sided>0</double_sided>
					</technique>
				</extra>
			</technique>
		</profile_COMMON>
	</effect>
</library_effects>
<library_materials>
	<material id="id-material-5" name="grass">
		<instance_effect url="#id-fx-4"/>
	</material>
	<material id="id-material-7" name="dirt">
		<instance_effect url="#id-fx-6"/>
	</material>
</library_materials>
<library_geometries>
	<geometry id="id-mesh-8" name="ID7">
		<mesh>
			<source id="id-mesh-8-positions">
				<float_array id="id-mesh-8-positions-array" count="576"> 0.591513991355896 0.2872273325920105 -0.5 0.5 0.2872273325920105 -0.591513991355896 0.5 0.44573432207107544 -0.5 0.591513991355896 0.2872273325920105 0.5 0.5 0.44573432207107544 0.5 0.5 0.2872273325920105 0.591513991355896 0.591513991355896 0.2872273325920105 -0.5 0.5 0.44573432207107544 -0.5 0.6330280303955078 0.215323343873024 -0.41666698455810547 0.591513991355896 0.2872273325920105 -0.33333301544189453 0.6330280303955078 0.215323343873024 -0.41666698455810547 0.5 0.44573432207107544 -0.5 0.5 0.44573432207107544 0.5 0.591513991355896 0.2872273325920105 -0.33333301544189453 0.5 0.44573432207107544 -0.5 0.591513991355896 0.2872273325920105 -0.16666701436042786 0.591513991355896 0.2872273325920105 -0.33333301544189453 0.5 0.44573432207107544 0.5 0.6330280303955078 0.215323343873024 -0.25 0.591513991355896 0.2872273325920105 -0.33333301544189453 0.591513991355896 0.2872273325920105 -0.16666701436042786 0.591513991355896 0.2872273325920105 -5.174250361505983e-09 0.591513991355896 0.2872273325920105 -0.16666701436042786 0.5 0.44573432207107544 0.5 0.6330280303955078 0.215323343873024 -0.08333302289247513 0.591513991355896 0.2872273325920105 -0.16666701436042786 0.591513991355896 0.2872273325920105 -5.174250361505983e-09 0.591513991355896 0.2872273325920105 0.16666698455810547 0.591513991355896 0.2872273325920105 -5.174250361505983e-09 0.5 0.44573432207107544 0.5 0.6330280303955078 0.215323343873024 0.08333300799131393 0.591513991355896 0.2872273325920105 -5.174250361505983e-09 0.591513991355896 0.2872273325920105 0.16666698455810547 0.6330280303955078 0.215323343873024 0.25 0.591513991355896 0.2872273325920105 0.16666698455810547 0.5 0.44573432207107544 0.5 0.591513991355896 0.2872273325920105 0.33333301544189453 0.6330280303955078 0.215323343873024 0.25 0.5 0.44573432207107544 0.5 0.6330280303955078 0.215323343873024 0.41666698455810547 0.591513991355896 0.2872273325920105 0.33333301544189453 0.5 0.44573432207107544 0.5 0.591513991355896 0.2872273325920105 0.5 0.6330280303955078 0.215323343873024 0.41666698455810547 0.5 0.44573432207107544 0.5 0.41666698455810547 0.215323343873024 -0.633027970790863 0.33333301544189453 0.2872273325920105 -0.591513991355896 0.5 0.2872273325920105 -0.591513991355896 0.5 0.44573432207107544 -0.5 0.5 0.2872273325920105 -0.591513991355896 0.33333301544189453 0.2872273325920105 -0.591513991355896 0.16666699945926666 0.2872273325920105 -0.591513991355896 0.5 0.44573432207107544 -0.5 0.33333301544189453 0.2872273325920105 -0.591513991355896 2.69080011605638e-08 0.2872273325920105 -0.591513991355896 0.5 0.44573432207107544 -0.5 0.16666699945926666 0.2872273325920105 -0.591513991355896 -0.16666699945926666 0.2872273325920105 -0.591513991355896 0.5 0.44573432207107544 -0.5 2.69080011605638e-08 0.2872273325920105 -0.591513991355896 -0.33333301544189453 0.2872273325920105 -0.591513991355896 0.5 0.44573432207107544 -0.5 -0.16666699945926666 0.2872273325920105 -0.591513991355896 -0.5 0.2872273325920105 -0.591513991355896 0.5 0.44573432207107544 -0.5 -0.33333301544189453 0.2872273325920105 -0.591513991355896 -0.5 0.44573432207107544 -0.5 0.5 0.44573432207107544 -0.5 -0.5 0.2872273325920105 -0.591513991355896 -0.33333301544189453 0.2872273325920105 -0.591513991355896 -0.41666698455810547 0.215323343873024 -0.633027970790863 -0.5 0.2872273325920105 -0.591513991355896 -0.16666699945926666 0.2872273325920105 -0.591513991355896 -0.25 0.215323343873024 -0.633027970790863 -0.33333301544189453 0.2872273325920105 -0.591513991355896 2.69080011605638e-08 0.2872273325920105 -0.591513991355896 -0.08333298563957214 0.215323343873024 -0.633027970790863 -0.16666699945926666 0.2872273325920105 -0.591513991355896 0.16666699945926666 0.2872273325920105 -0.591513991355896 0.08333304524421692 0.215323343873024 -0.633027970790863 2.69080011605638e-08 0.2872273325920105 -0.591513991355896 0.33333301544189453 0.2872273325920105 -0.591513991355896 0.25 0.215323343873024 -0.633027970790863 0.16666699945926666 0.2872273325920105 -0.591513991355896 -0.5 0.44573432207107544 0.5 -0.591513991355896 0.2872273325920105 0.5 -0.5 0.2872273325920105 0.591513991355896 -0.41666698455810547 0.215323343873024 0.6330280303955078 -0.33333301544189453 0.2872273325920105 0.591513991355896 -0.5 0.2872273325920105 0.591513991355896 -0.5 0.44573432207107544 0.5 -0.5 0.2872273325920105 0.591513991355896 -0.33333301544189453 0.2872273325920105 0.591513991355896 -0.16666699945926666 0.2872273325920105 0.591513991355896 -0.5 0.44573432207107544 0.5 -0.33333301544189453 0.2872273325920105 0.591513991355896 2.69080011605638e-08 0.2872273325920105 0.591513991355896 -0.5 0.44573432207107544 0.5 -0.16666699945926666 0.2872273325920105 0.591513991355896 0.16666699945926666 0.2872273325920105 0.591513991355896 -0.5 0.44573432207107544 0.5 2.69080011605638e-08 0.2872273325920105 0.591513991355896 0.33333301544189453 0.2872273325920105 0.591513991355896 -0.5 0.44573432207107544 0.5 0.16666699945926666 0.2872273325920105 0.591513991355896 0.5 0.2872273325920105 0.591513991355896 -0.5 0.44573432207107544 0.5 0.33333301544189453 0.2872273325920105 0.591513991355896 0.5 0.44573432207107544 0.5 -0.5 0.44573432207107544 0.5 0.5 0.2872273325920105 0.591513991355896 0.33333301544189453 0.2872273325920105 0.591513991355896 0.41666698455810547 0.215323343873024 0.6330280303955078 0.5 0.2872273325920105 0.591513991355896 0.16666699945926666 0.2872273325920105 0.591513991355896 0.25 0.215323343873024 0.6330280303955078 0.33333301544189453 0.2872273325920105 0.591513991355896 2.69080011605638e-08 0.2872273325920105 0.591513991355896 0.08333304524421692 0.215323343873024 0.6330280303955078 0.16666699945926666 0.2872273325920105 0.591513991355896 -0.16666699945926666 0.2872273325920105 0.591513991355896 -0.08333298563957214 0.215323343873024 0.6330280303955078 2.69080011605638e-08 0.2872273325920105 0.591513991355896 -0.33333301544189453 0.2872273325920105 0.591513991355896 -0.25 0.215323343873024 0.6330280303955078 -0.16666699945926666 0.2872273325920105 0.591513991355896 -0.591513991355896 0.2872273325920105 -0.5 -0.633027970790863 0.215323343873024 -0.41666698455810547 -0.5 0.44573432207107544 -0.5 -0.591513991355896 0.2872273325920105 -0.33333301544189453 -0.5 0.44573432207107544 -0.5 -0.633027970790863 0.215323343873024 -0.41666698455810547 -0.5 0.44573432207107544 0.5 -0.5 0.44573432207107544 -0.5 -0.591513991355896 0.2872273325920105 -0.33333301544189453 -0.591513991355896 0.2872273325920105 -0.16666701436042786 -0.5 0.44573432207107544 0.5 -0.591513991355896 0.2872273325920105 -0.33333301544189453 -0.633027970790863 0.215323343873024 -0.25 -0.591513991355896 0.2872273325920105 -0.16666701436042786 -0.591513991355896 0.2872273325920105 -0.33333301544189453 -0.591513991355896 0.2872273325920105 -5.174250361505983e-09 -0.5 0.44573432207107544 0.5 -0.591513991355896 0.2872273325920105 -0.16666701436042786 -0.633027970790863 0.215323343873024 -0.08333302289247513 -0.591513991355896 0.2872273325920105 -5.174250361505983e-09 -0.591513991355896 0.2872273325920105 -0.16666701436042786 -0.591513991355896 0.2872273325920105 0.16666698455810547 -0.5 0.44573432207107544 0.5 -0.591513991355896 0.2872273325920105 -5.174250361505983e-09 -0.633027970790863 0.215323343873024 0.08333300799131393 -0.591513991355896 0.2872273325920105 0.16666698455810547 -0.591513991355896 0.2872273325920105 -5.174250361505983e-09 -0.633027970790863 0.215323343873024 0.25 -0.5 0.44573432207107544 0.5 -0.591513991355896 0.2872273325920105 0.16666698455810547 -0.591513991355896 0.2872273325920105 0.33333301544189453 -0.5 0.44573432207107544 0.5 -0.633027970790863 0.215323343873024 0.25 -0.633027970790863 0.215323343873024 0.41666698455810547 -0.5 0.44573432207107544 0.5 -0.591513991355896 0.2872273325920105 0.33333301544189453 -0.591513991355896 0.2872273325920105 0.5 -0.5 0.44573432207107544 0.5 -0.633027970790863 0.215323343873024 0.41666698455810547 -0.5 0.44573432207107544 0.5 0.5 0.44573432207107544 0.5 -0.5 0.44573432207107544 -0.5 0.5 0.44573432207107544 -0.5 -0.5 0.2872273325920105 -0.591513991355896 -0.591513991355896 0.2872273325920105 -0.5 -0.5 0.44573432207107544 -0.5 -0.5 0.44573432207107544 -0.5 -0.5 -0.5542656779289246 -0.5 -0.5 0.44573432207107544 0.5 -0.5 -0.5542656779289246 0.5 0.5 -0.5542656779289246 -0.5 -0.5 -0.5542656779289246 -0.5 0.5 0.44573432207107544 -0.5 -0.5 0.44573432207107544 -0.5 -0.5 -0.5542656779289246 0.5 -0.5 -0.5542656779289246 -0.5 0.5 -0.5542656779289246 0.5 0.5 -0.5542656779289246 -0.5 -0.5 -0.5542656779289246 0.5 0.5 -0.5542656779289246 0.5 -0.5 0.44573432207107544 0.5 0.5 0.44573432207107544 0.5 0.5 -0.5542656779289246 -0.5 0.5 0.44573432207107544 -0.5 0.5 -0.5542656779289246 0.5 0.5 0.44573432207107544 0.5</float_array>
				<technique_common>
				<accessor source="#id-mesh-8-positions-array" count="192" stride="3">
					<param name="X" type="float"/>
					<param name="Y" type="float"/>
					<param name="Z" type="float"/>
				</accessor>
				</technique_common>
			</source>
			<source id="id-mesh-8-normals">
				<float_array id="id-mesh-8-normals-array" count="576"> 0.6546539068222046 0.3779642581939697 -0.6546535491943359 0.6546539068222046 0.3779642581939697 -0.6546535491943359 0.6546539068222046 0.3779642581939697 -0.6546535491943359 0.6546539068222046 0.3779642581939697 0.6546535491943359 0.6546539068222046 0.3779642581939697 0.6546535491943359 0.6546539068222046 0.3779642581939697 0.6546535491943359 0.8660257458686829 0.499999463558197 -2.9309380806807894e-06 0.8660257458686829 0.499999463558197 -2.9309380806807894e-06 0.8660257458686829 0.499999463558197 -2.9309380806807894e-06 0.866024911403656 0.5000008940696716 1.5367077139671892e-06 0.866024911403656 0.5000008940696716 1.5367077139671892e-06 0.866024911403656 0.5000008940696716 1.5367077139671892e-06 0.866025447845459 0.4999997913837433 0.0 0.866025447845459 0.4999997913837433 0.0 0.866025447845459 0.4999997913837433 0.0 0.8660261034965515 0.4999987781047821 0.0 0.8660261034965515 0.4999987781047821 0.0 0.8660261034965515 0.4999987781047821 0.0 0.8660240173339844 0.500002384185791 0.0 0.8660240173339844 0.500002384185791 0.0 0.8660240173339844 0.500002384185791 0.0 0.866024911403656 0.5000009536743164 0.0 0.866024911403656 0.5000009536743164 0.0 0.866024911403656 0.5000009536743164 0.0 0.8660247921943665 0.5000009536743164 0.0 0.8660247921943665 0.5000009536743164 0.0 0.8660247921943665 0.5000009536743164 0.0 0.8660256862640381 0.4999995231628418 0.0 0.8660256862640381 0.4999995231628418 0.0 0.8660256862640381 0.4999995231628418 0.0 0.8660238981246948 0.5000025629997253 0.0 0.8660238981246948 0.5000025629997253 0.0 0.8660238981246948 0.5000025629997253 0.0 0.8660247921943665 0.5000009536743164 -1.0413561994937481e-06 0.8660247921943665 0.5000009536743164 -1.0413561994937481e-06 0.8660247921943665 0.5000009536743164 -1.0413561994937481e-06 0.8660392761230469 0.4999760091304779 3.16080404445529e-05 0.8660392761230469 0.4999760091304779 3.16080404445529e-05 0.8660392761230469 0.4999760091304779 3.16080404445529e-05 0.8660248517990112 0.500001072883606 -1.5367074865935137e-06 0.8660248517990112 0.500001072883606 -1.5367074865935137e-06 0.8660248517990112 0.500001072883606 -1.5367074865935137e-06 0.8660257458686829 0.499999463558197 2.9309380806807894e-06 0.8660257458686829 0.499999463558197 2.9309380806807894e-06 0.8660257458686829 0.499999463558197 2.9309380806807894e-06 0.0 0.500001847743988 -0.8660243153572083 0.0 0.500001847743988 -0.8660243153572083 0.0 0.500001847743988 -0.8660243153572083 0.0 0.4999997317790985 -0.8660255670547485 0.0 0.4999997317790985 -0.8660255670547485 0.0 0.4999997317790985 -0.8660255670547485 0.0 0.4999995827674866 -0.8660256266593933 0.0 0.4999995827674866 -0.8660256266593933 0.0 0.4999995827674866 -0.8660256266593933 0.0 0.49999988079071045 -0.8660253882408142 0.0 0.49999988079071045 -0.8660253882408142 0.0 0.49999988079071045 -0.8660253882408142 0.0 0.4999997913837433 -0.8660255670547485 0.0 0.4999997913837433 -0.8660255670547485 0.0 0.4999997913837433 -0.8660255670547485 0.0 0.49999889731407166 -0.8660261034965515 0.0 0.49999889731407166 -0.8660261034965515 0.0 0.49999889731407166 -0.8660261034965515 0.0 0.5000001788139343 -0.8660253286361694 0.0 0.5000001788139343 -0.8660253286361694 0.0 0.5000001788139343 -0.8660253286361694 0.0 0.4999997019767761 -0.866025447845459 0.0 0.4999997019767761 -0.866025447845459 0.0 0.4999997019767761 -0.866025447845459 0.0 0.5000017285346985 -0.866024374961853 0.0 0.5000017285346985 -0.866024374961853 0.0 0.5000017285346985 -0.866024374961853 0.0 0.5000017285346985 -0.8660244345664978 0.0 0.5000017285346985 -0.8660244345664978 0.0 0.5000017285346985 -0.8660244345664978 0.0 0.5000017285346985 -0.866024374961853 0.0 0.5000017285346985 -0.866024374961853 0.0 0.5000017285346985 -0.866024374961853 0.0 0.5000016093254089 -0.866024374961853 0.0 0.5000016093254089 -0.866024374961853 0.0 0.5000016093254089 -0.866024374961853 0.0 0.5000017285346985 -0.8660244345664978 0.0 0.5000017285346985 -0.8660244345664978 0.0 0.5000017285346985 -0.8660244345664978 -0.6546539068222046 0.3779642581939697 0.6546535491943359 -0.6546539068222046 0.3779642581939697 0.6546535491943359 -0.6546539068222046 0.3779642581939697 0.6546535491943359 0.0 0.5000022649765015 0.8660241365432739 0.0 0.5000022649765015 0.8660241365432739 0.0 0.5000022649765015 0.8660241365432739 0.0 0.4999997317790985 0.8660255670547485 0.0 0.4999997317790985 0.8660255670547485 0.0 0.4999997317790985 0.8660255670547485 0.0 0.4999995827674866 0.8660256266593933 0.0 0.4999995827674866 0.8660256266593933 0.0 0.4999995827674866 0.8660256266593933 0.0 0.5 0.8660253882408142 0.0 0.5 0.8660253882408142 0.0 0.5 0.8660253882408142 0.0 0.49999967217445374 0.8660255670547485 0.0 0.49999967217445374 0.8660255670547485 0.0 0.49999967217445374 0.8660255670547485 0.0 0.49999889731407166 0.8660261034965515 0.0 0.49999889731407166 0.8660261034965515 0.0 0.49999889731407166 0.8660261034965515 0.0 0.5000001788139343 0.8660253286361694 0.0 0.5000001788139343 0.8660253286361694 0.0 0.5000001788139343 0.8660253286361694 0.0 0.4999997019767761 0.866025447845459 0.0 0.4999997019767761 0.866025447845459 0.0 0.4999997019767761 0.866025447845459 0.0 0.5000020861625671 0.8660241365432739 0.0 0.5000020861625671 0.8660241365432739 0.0 0.5000020861625671 0.8660241365432739 0.0 0.5000023245811462 0.8660240173339844 0.0 0.5000023245811462 0.8660240173339844 0.0 0.5000023245811462 0.8660240173339844 0.0 0.5000021457672119 0.8660241365432739 0.0 0.5000021457672119 0.8660241365432739 0.0 0.5000021457672119 0.8660241365432739 0.0 0.5000022649765015 0.8660241365432739 0.0 0.5000022649765015 0.8660241365432739 0.0 0.5000022649765015 0.8660241365432739 0.0 0.5000023245811462 0.8660240173339844 0.0 0.5000023245811462 0.8660240173339844 0.0 0.5000023245811462 0.8660240173339844 -0.8660259246826172 0.499999076128006 -2.4424489311059006e-06 -0.8660259246826172 0.499999076128006 -2.4424489311059006e-06 -0.8660259246826172 0.499999076128006 -2.4424489311059006e-06 -0.8660250306129456 0.5000006556510925 1.2805899132217746e-06 -0.8660250306129456 0.5000006556510925 1.2805899132217746e-06 -0.8660250306129456 0.5000006556510925 1.2805899132217746e-06 -0.866025447845459 0.4999997913837433 0.0 -0.866025447845459 0.4999997913837433 0.0 -0.866025447845459 0.4999997913837433 0.0 -0.8660261034965515 0.4999987781047821 0.0 -0.8660261034965515 0.4999987781047821 0.0 -0.8660261034965515 0.4999987781047821 0.0 -0.8660250306129456 0.5000007748603821 0.0 -0.8660250306129456 0.5000007748603821 0.0 -0.8660250306129456 0.5000007748603821 0.0 -0.866024911403656 0.5000009536743164 0.0 -0.866024911403656 0.5000009536743164 0.0 -0.866024911403656 0.5000009536743164 0.0 -0.8660247921943665 0.5000009536743164 0.0 -0.8660247921943665 0.5000009536743164 0.0 -0.8660247921943665 0.5000009536743164 0.0 -0.8660256862640381 0.4999995231628418 0.0 -0.8660256862640381 0.4999995231628418 0.0 -0.8660256862640381 0.4999995231628418 0.0 -0.866024374961853 0.5000017881393433 0.0 -0.866024374961853 0.5000017881393433 0.0 -0.866024374961853 0.5000017881393433 0.0 -0.8660247921943665 0.5000009536743164 -8.677968708070694e-07 -0.8660247921943665 0.5000009536743164 -8.677968708070694e-07 -0.8660247921943665 0.5000009536743164 -8.677968708070694e-07 -0.8660392761230469 0.4999760091304779 2.6340036129113287e-05 -0.8660392761230469 0.4999760091304779 2.6340036129113287e-05 -0.8660392761230469 0.4999760091304779 2.6340036129113287e-05 -0.8660250306129456 0.5000006556510925 -1.2805899132217746e-06 -0.8660250306129456 0.5000006556510925 -1.2805899132217746e-06 -0.8660250306129456 0.5000006556510925 -1.2805899132217746e-06 -0.8660259246826172 0.499999076128006 2.4424489311059006e-06 -0.8660259246826172 0.499999076128006 2.4424489311059006e-06 -0.8660259246826172 0.499999076128006 2.4424489311059006e-06 0.0 1.0 0.0 0.0 1.0 0.0 0.0 1.0 0.0 0.0 1.0 0.0 -0.6546539068222046 0.3779642581939697 -0.6546535491943359 -0.6546539068222046 0.3779642581939697 -0.6546535491943359 -0.6546539068222046 0.3779642581939697 -0.6546535491943359 -1.0 0.0 0.0 -1.0 0.0 0.0 -1.0 0.0 0.0 -1.0 0.0 0.0 0.0 0.0 -1.0 0.0 0.0 -1.0 0.0 0.0 -1.0 0.0 0.0 -1.0 0.0 -1.0 0.0 0.0 -1.0 0.0 0.0 -1.0 0.0 0.0 -1.0 0.0 0.0 0.0 1.0 0.0 0.0 1.0 0.0 0.0 1.0 0.0 0.0 1.0 1.0 0.0 0.0 1.0 0.0 0.0 1.0 0.0 0.0 1.0 0.0 0.0</float_array>
				<technique_common>
				<accessor source="#id-mesh-8-normals-array" count="192" stride="3">
					<param name="X" type="float"/>
					<param name="Y" type="float"/>
					<param name="Z" type="float"/>
				</accessor>
				</technique_common>
			</source>
			<source id="id-mesh-8-texcoord-0">
				<float_array id="id-mesh-8-texcoord-0-array" count="384"> 30.386493682861328 19.18708038330078 25.29120445251465 19.18708038330078 27.838850021362305 25.92751121520996 -2.547645092010498 8.664982795715332 0.0 15.405415534973145 2.547645092010498 8.664982795715332 0.0 7.204620838165283 0.0 14.41044807434082 3.2808399200439453 3.9358019828796387 6.561679840087891 7.204620838165283 3.2808399200439453 3.9358019828796387 0.0 14.41044807434082 39.370079040527344 14.41044807434082 6.561679840087891 7.204620838165283 0.0 14.41044807434082 13.123359680175781 7.204620838165283 6.561679840087891 7.204620838165283 39.370079040527344 14.41044807434082 9.842519760131836 3.9358019828796387 6.561679840087891 7.204620838165283 13.123359680175781 7.204620838165283 19.685039520263672 7.204620838165283 13.123359680175781 7.204620838165283 39.370079040527344 14.41044807434082 16.404199600219727 3.9358019828796387 13.123359680175781 7.204620838165283 19.685039520263672 7.204620838165283 26.246719360351562 7.204620838165283 19.685039520263672 7.204620838165283 39.370079040527344 14.41044807434082 22.965879440307617 3.9358019828796387 19.685039520263672 7.204620838165283 26.246719360351562 7.204620838165283 29.527559280395508 3.9358019828796387 26.246719360351562 7.204620838165283 39.370079040527344 14.41044807434082 32.80839920043945 7.204620838165283 29.527559280395508 3.9358019828796387 39.370079040527344 14.41044807434082 36.089237213134766 3.9358019828796387 32.80839920043945 7.204620838165283 39.370079040527344 14.41044807434082 39.370079040527344 7.204620838165283 36.089237213134766 3.9358019828796387 39.370079040527344 14.41044807434082 36.089237213134766 23.62084197998047 32.80839920043945 26.88966178894043 39.370079040527344 26.88966178894043 39.370079040527344 34.095489501953125 39.370079040527344 26.88966178894043 32.80839920043945 26.88966178894043 26.246719360351562 26.88966178894043 39.370079040527344 34.095489501953125 32.80839920043945 26.88966178894043 19.685039520263672 26.88966178894043 39.370079040527344 34.095489501953125 26.246719360351562 26.88966178894043 13.123359680175781 26.88966178894043 39.370079040527344 34.095489501953125 19.685039520263672 26.88966178894043 6.561679840087891 26.88966178894043 39.370079040527344 34.095489501953125 13.123359680175781 26.88966178894043 0.0 26.88966178894043 39.370079040527344 34.095489501953125 6.561679840087891 26.88966178894043 0.0 34.095489501953125 39.370079040527344 34.095489501953125 0.0 26.88966178894043 6.561679840087891 26.88966178894043 3.2808399200439453 23.62084197998047 0.0 26.88966178894043 13.123359680175781 26.88966178894043 9.842519760131836 23.62084197998047 6.561679840087891 26.88966178894043 19.685039520263672 26.88966178894043 16.404199600219727 23.62084197998047 13.123359680175781 26.88966178894043 26.246719360351562 26.88966178894043 22.965879440307617 23.62084197998047 19.685039520263672 26.88966178894043 32.80839920043945 26.88966178894043 29.527559280395508 23.62084197998047 26.246719360351562 26.88966178894043 -27.838850021362305 25.92751121520996 -25.29120445251465 19.18708038330078 -30.386493682861328 19.18708038330078 -3.2808399200439453 3.9358019828796387 -6.561679840087891 7.204620838165283 0.0 7.204620838165283 0.0 14.41044807434082 0.0 7.204620838165283 -6.561679840087891 7.204620838165283 -13.123359680175781 7.204620838165283 0.0 14.41044807434082 -6.561679840087891 7.204620838165283 -19.685039520263672 7.204620838165283 0.0 14.41044807434082 -13.123359680175781 7.204620838165283 -26.246719360351562 7.204620838165283 0.0 14.41044807434082 -19.685039520263672 7.204620838165283 -32.80839920043945 7.204620838165283 0.0 14.41044807434082 -26.246719360351562 7.204620838165283 -39.370079040527344 7.204620838165283 0.0 14.41044807434082 -32.80839920043945 7.204620838165283 -39.370079040527344 14.41044807434082 0.0 14.41044807434082 -39.370079040527344 7.204620838165283 -32.80839920043945 7.204620838165283 -36.089237213134766 3.9358019828796387 -39.370079040527344 7.204620838165283 -26.246719360351562 7.204620838165283 -29.527559280395508 3.9358019828796387 -32.80839920043945 7.204620838165283 -19.685039520263672 7.204620838165283 -22.965879440307617 3.9358019828796387 -26.246719360351562 7.204620838165283 -13.123359680175781 7.204620838165283 -16.404199600219727 3.9358019828796387 -19.685039520263672 7.204620838165283 -6.561679840087891 7.204620838165283 -9.842519760131836 3.9358019828796387 -13.123359680175781 7.204620838165283 0.0 26.88966178894043 -3.2808399200439453 23.62084197998047 0.0 34.095489501953125 -6.561679840087891 26.88966178894043 0.0 34.095489501953125 -3.2808399200439453 23.62084197998047 -39.370079040527344 34.095489501953125 0.0 34.095489501953125 -6.561679840087891 26.88966178894043 -13.123359680175781 26.88966178894043 -39.370079040527344 34.095489501953125 -6.561679840087891 26.88966178894043 -9.842519760131836 23.62084197998047 -13.123359680175781 26.88966178894043 -6.561679840087891 26.88966178894043 -19.685039520263672 26.88966178894043 -39.370079040527344 34.095489501953125 -13.123359680175781 26.88966178894043 -16.404199600219727 23.62084197998047 -19.685039520263672 26.88966178894043 -13.123359680175781 26.88966178894043 -26.246719360351562 26.88966178894043 -39.370079040527344 34.095489501953125 -19.685039520263672 26.88966178894043 -22.965879440307617 23.62084197998047 -26.246719360351562 26.88966178894043 -19.685039520263672 26.88966178894043 -29.527559280395508 23.62084197998047 -39.370079040527344 34.095489501953125 -26.246719360351562 26.88966178894043 -32.80839920043945 26.88966178894043 -39.370079040527344 34.095489501953125 -29.527559280395508 23.62084197998047 -36.089237213134766 23.62084197998047 -39.370079040527344 34.095489501953125 -32.80839920043945 26.88966178894043 -39.370079040527344 26.88966178894043 -39.370079040527344 34.095489501953125 -36.089237213134766 23.62084197998047 0.0 39.370079040527344 39.370079040527344 39.370079040527344 0.0 0.0 39.370079040527344 0.0 2.547645092010498 29.70917510986328 -2.547645092010498 29.70917510986328 0.0 36.44961166381836 0.0 39.370079040527344 0.0 0.0 -39.370079040527344 39.370079040527344 -39.370079040527344 0.0 39.370079040527344 0.0 0.0 0.0 39.370079040527344 39.370079040527344 0.0 39.370079040527344 0.0 39.370079040527344 0.0 0.0 -39.370079040527344 39.370079040527344 -39.370079040527344 0.0 0.0 0.0 -39.370079040527344 0.0 0.0 39.370079040527344 -39.370079040527344 39.370079040527344 0.0 0.0 0.0 39.370079040527344 39.370079040527344 0.0 39.370079040527344 39.370079040527344</float_array>
				<technique_common>
				<accessor source="#id-mesh-8-texcoord-0-array" count="192" stride="2">
					<param name="S" type="float"/>
					<param name="T" type="float"/>
				</accessor>
				</technique_common>
			</source>
			<vertices id="id-mesh-8-vertices">
				<input semantic="POSITION" source="#id-mesh-8-positions"/>
			</vertices>
			<polygons count="58" material="id-trimat-9">
				<input semantic="VERTEX" source="#id-mesh-8-vertices" offset="0"/>
				<input semantic="NORMAL" source="#id-mesh-8-normals" offset="0"/>
				<input semantic="TEXCOORD" source="#id-mesh-8-texcoord-0" offset="0" set="0"/>
				<p> 0 1 2 </p>
				<p> 3 4 5 </p>
				<p> 6 7 8 </p>
				<p> 9 10 11 </p>
				<p> 12 13 14 </p>
				<p> 15 16 17 </p>
				<p> 18 19 20 </p>
				<p> 21 22 23 </p>
				<p> 24 25 26 </p>
				<p> 27 28 29 </p>
				<p> 30 31 32 </p>
				<p> 33 34 35 </p>
				<p> 36 37 38 </p>
				<p> 39 40 41 </p>
				<p> 42 43 44 </p>
				<p> 45 46 47 </p>
				<p> 48 49 50 </p>
				<p> 51 52 53 </p>
				<p> 54 55 56 </p>
				<p> 57 58 59 </p>
				<p> 60 61 62 </p>
				<p> 63 64 65 </p>
				<p> 66 67 68 </p>
				<p> 69 70 71 </p>
				<p> 72 73 74 </p>
				<p> 75 76 77 </p>
				<p> 78 79 80 </p>
				<p> 81 82 83 </p>
				<p> 84 85 86 </p>
				<p> 87 88 89 </p>
				<p> 90 91 92 </p>
				<p> 93 94 95 </p>
				<p> 96 97 98 </p>
				<p> 99 100 101 </p>
				<p> 102 103 104 </p>
				<p> 105 106 107 </p>
				<p> 108 109 110 </p>
				<p> 111 112 113 </p>
				<p> 114 115 116 </p>
				<p> 117 118 119 </p>
				<p> 120 121 122 </p>
				<p> 123 124 125 </p>
				<p> 126 127 128 </p>
				<p> 129 130 131 </p>
				<p> 132 133 134 </p>
				<p> 135 136 137 </p>
				<p> 138 139 140 </p>
				<p> 141 142 143 </p>
				<p> 144 145 146 </p>
				<p> 147 148 149 </p>
				<p> 150 151 152 </p>
				<p> 153 154 155 </p>
				<p> 156 157 158 </p>
				<p> 159 160 161 </p>
				<p> 162 163 164 </p>
				<p> 165 166 167 </p>
				<p> 168 167 166 </p>
				<p> 169 170 171 </p>
			</polygons>
			<polygons count="10" material="id-trimat-10">
				<input semantic="VERTEX" source="#id-mesh-8-vertices" offset="0"/>
				<input semantic="NORMAL" source="#id-mesh-8-normals" offset="0"/>
				<input semantic="TEXCOORD" source="#id-mesh-8-texcoord-0" offset="0" set="0"/>
				<p> 172 173 174 </p>
				<p> 175 174 173 </p>
				<p> 176 177 178 </p>
				<p> 179 178 177 </p>
				<p> 180 181 182 </p>
				<p> 183 182 181 </p>
				<p> 184 185 186 </p>
				<p> 187 186 185 </p>
				<p> 188 189 190 </p>
				<p> 191 190 189 </p>
			</polygons>
		</mesh>
	</geometry>
</library_geometries>
<library_cameras>
	<camera id="id-camera-2" name="Camera">
		<optics>
			<technique_common>
				<perspective>
					<yfov>49.13434207760448</yfov>
					<aspect_ratio>1.7777777777777777</aspect_ratio>
					<znear>0.10000000149011612</znear>
					<zfar>100.0</zfar>
				</perspective>
			</technique_common>
		</optics>
	</camera>
</library_cameras>
<library_lights>
	<light id="id-light-3" name="Lamp">
			<technique_common>
				<point>
					<color>  1.0 1.0 1.0 </color>
					<linear_attenuation>0.06666670481366115</linear_attenuation>
				</point>
			</technique_common>
	</light>
</library_lights>
<library_visual_scenes>
	<visual_scene id="id-scene-1" name="scene">
		<node id="Camera" name="Camera" type="NODE">
			<matrix sid="transform"> 0.6859206557273865 -0.32401347160339355 0.6515582203865051 7.481131553649902 0.7276763319969177 0.305420845746994 -0.6141703724861145 -6.5076398849487305 0.0 0.8953956365585327 0.44527140259742737 5.34366512298584 0.0 0.0 0.0 1.0  </matrix>
			<instance_camera url="#id-camera-2"/>
		</node>
		<node id="Lamp" name="Lamp" type="NODE">
			<matrix sid="transform"> -0.29086464643478394 -0.7711008191108704 0.5663931965827942 4.076245307922363 0.9551711678504944 -0.1998833566904068 0.21839119493961334 1.0054539442062378 -0.05518905818462372 0.6045247316360474 0.7946722507476807 5.903861999511719 0.0 0.0 0.0 1.0  </matrix>
			<instance_light url="#id-light-3"/>
		</node>
		<node id="block" name="block" type="NODE">
			<matrix sid="transform"> -1.0 -3.821371353845884e-15 -8.742277657347586e-08 5.7952092902269214e-08 -8.742277657347586e-08 4.371138828673793e-08 1.0 -8.43448404452829e-08 0.0 1.0 -4.371138828673793e-08 -0.4073828160762787 0.0 0.0 0.0 1.0  </matrix>
			<instance_geometry url="#id-mesh-8">
				<bind_material>
					<technique_common>
						<instance_material symbol="id-trimat-9" target="#id-material-5"/>
						<instance_material symbol="id-trimat-10" target="#id-material-7"/>
					</technique_common>
				</bind_material>
			</instance_geometry>
		</node>
	</visual_scene>
</library_visual_scenes>
<scene>
	<instance_visual_scene url="#id-scene-1" />
</scene>
</COLLADA>
